IQ-TREE multicore version 2.0-rc2 for Linux 64-bit built Mar 28 2020
Developed by Bui Quang Minh, Nguyen Lam Tung, Olga Chernomor,
Heiko Schmidt, Dominik Schrempf, Michael Woodhams.

Host:    DESKTOP-FRVB0JI (AVX2, FMA3, 23 GB RAM)
Command: /home/brevver/iqtree-2.0-rc2-Linux/bin/iqtree -s spidroins_TRIMAL.fasta --alrt 1000 -B 1000 --modelomatic -bnni -redo
Seed:    584568 (Using SPRNG - Scalable Parallel Random Number Generator)
Time:    Mon Apr 27 16:00:35 2020
Kernel:  AVX+FMA - 1 threads (4 CPU cores detected)

HINT: Use -nt option to specify number of threads because your CPU has 4 cores!
HINT: -nt AUTO will automatically determine the best number of threads to use.

Reading alignment file spidroins_TRIMAL.fasta ... Fasta format detected
Alignment most likely contains protein sequences
Alignment has 95 sequences with 87 columns, 87 distinct patterns
86 parsimony-informative, 0 singleton sites, 1 constant sites
                        Gap/Ambiguity  Composition  p-value
   1  palu_AcSp                 4.60%    passed     29.20%
   2  stela_AcSp                4.60%    passed     29.20%
   3  waika_AcSp                4.60%    passed     73.98%
   4  T_shinanoensis_AcSp       4.60%    passed      9.55%
   5  T_nitens_AcSp             3.45%    passed     74.97%
   6  T_lauta_AcSp              3.45%    passed     74.95%
   7  T_clavipes_Flag           8.05%    failed      0.00%
   8  Nephila_AgSp_c            2.30%    passed      8.36%
   9  Latrodectus_AgSp2         1.15%    failed      0.06%
  10  Latrodectus_AgSp1         1.15%    failed      0.00%
  11  T_maxillosa_AgSp          1.15%    passed      9.70%
  12  T_yesoensis_AgSp          2.30%    failed      0.09%
  13  T_pinicola_AgSp           1.15%    passed      8.30%
  14  T_praedonia_AgSp          3.45%    passed     34.48%
  15  T_lauta_AgSp              3.45%    passed     34.48%
  16  T_extensa_AgSp            1.15%    passed     15.22%
  17  T_tanigawai_AgSp          2.30%    failed      0.58%
  18  T_nitens_AgSp             1.15%    failed      3.20%
  19  fili_Flag                11.49%    failed      0.53%
  20  stela_Flag               11.49%    failed      0.37%
  21  T_tanigawai_Flag         10.34%    passed      6.54%
  22  T_extensa_Flag           11.49%    failed      3.82%
  23  T_lauta_Flag             16.09%    failed      2.00%
  24  brevi_TuSp               10.34%    passed     37.36%
  25  fili_TuSp                 4.60%    passed     40.17%
  26  palu_TuSp                 4.60%    passed     29.47%
  27  quasi_TuSp                4.60%    passed     32.36%
  28  stela_TuSp1               4.60%    passed     56.22%
  29  stela_TuSp2              10.34%    passed     43.72%
  30  waika_TuSp                4.60%    passed     31.80%
  31  T_pinicola_CySp           4.60%    passed     44.90%
  32  T_shinanoensis_CySp       4.60%    passed     54.28%
  33  T_lauta_CySp              4.60%    passed     73.62%
  34  A_diadematus_MaSp2a       1.15%    passed     75.49%
  35  A_diadematus_MaSp2b       4.60%    passed     92.15%
  36  A_ventricosus_Flag       13.79%    failed      0.13%
  37  A_bruennichi_TuSp1        4.60%    passed     87.27%
  38  L_hesperus_MaSp2          1.15%    passed     73.58%
  39  L_hesperus_MaSp1          1.15%    passed     41.08%
  40  B_californicum_Fibroin    1.15%    passed     81.88%
  41  T_brevignatha_SP1         1.15%    passed     40.13%
  42  T_waikamoi_SP1            1.15%    passed     40.13%
  43  T_brevignatha_SP2         1.15%    passed     40.13%
  44  T_quasimodo_SP1           1.15%    passed     30.38%
  45  T_filiciphelia_SP         1.15%    passed     21.24%
  46  T_stelarobusta_SP         1.15%    passed     21.24%
  47  T_paludicola_SP           1.15%    passed     29.58%
  48  T_clavipes_Sp_907         3.45%    passed     50.34%
  49  T_clavipes_Sp_74867       1.15%    passed     32.64%
  50  T_clavipes_MiSp_b         1.15%    passed     99.95%
  51  L_hesperus_MiSp           1.15%    passed     86.83%
  52  T_clavipes_MiSp_a         1.15%    passed     88.62%
  53  T_paludicola_MiSp         9.20%    passed     48.59%
  54  T_stelarobusta_MiSp       9.20%    passed     44.62%
  55  T_quasimodo_MiSp          9.20%    passed     55.18%
  56  T_waikamoi_MiSp           9.20%    passed     67.45%
  57  T_brevignatha_MiSp       27.59%    passed     86.92%
  58  T_filiciphelia_MiSp       9.20%    passed     56.69%
  59  P_tepidariorum_MiSp       1.15%    passed     80.06%
  60  A_argentata_MaSp2_v5      4.60%    passed     95.47%
  61  T_yesoensis_MaSp          1.15%    passed     58.34%
  62  T_praedonia_MaSp          1.15%    passed     50.77%
  63  T_nitens_MaSp             1.15%    passed     61.13%
  64  T_paludicola_MaSp1        1.15%    passed     58.14%
  65  T_stelarobusta_MaSp1      1.15%    passed     63.10%
  66  T_waikamoi_MaSp1          1.15%    passed     47.76%
  67  T_brevignatha_MaSp1       1.15%    passed     47.76%
  68  T_quasimodo_MaSp1         1.15%    passed     42.85%
  69  T_tanigawai_MaSp          1.15%    passed     65.82%
  70  T_filiciphelia_MaSp1      1.15%    passed     11.48%
  71  T_clavipes_MaSp_g         1.15%    passed     99.85%
  72  T_versicolor_MaSp1       10.34%    passed     93.17%
  73  T_clavipes_MaSp_a         1.15%    passed     97.41%
  74  T_extensa_MaSp            1.15%    passed     49.57%
  75  S_grossa_MiSp             1.15%    passed     58.24%
  76  P_tepidariorum_MaSp2      1.15%    passed     79.94%
  77  T_clavipes_MaSp_d         1.15%    passed     96.33%
  78  fili_AgSp1                1.15%    passed     21.51%
  79  brevi_AgSp1               3.45%    passed      6.72%
  80  stela_AgSp1               1.15%    passed      5.59%
  81  palu_AgSp1                1.15%    failed      4.61%
  82  fili_AgSp2                1.15%    failed      0.24%
  83  stela_AgSp3               1.15%    failed      1.42%
  84  palu_AgSp2               39.08%    failed      0.38%
  85  fili_AgSp3                1.15%    failed      0.00%
  86  stela_AgSp4               1.15%    failed      0.00%
  87  palu_AgSp3                1.15%    failed      0.01%
  88  brevi_PiSp                5.75%    passed     29.93%
  89  fili_PiSp                 5.75%    passed     22.21%
  90  T_clavipes_PiSp           4.60%    passed     45.48%
  91  A_argentata_PySp          6.90%    passed     80.06%
  92  palu_PiSp                 5.75%    passed     23.24%
  93  quasi_PiSp                5.75%    passed     62.50%
  94  stela_PiSp                5.75%    passed     22.21%
  95  waika_PiSp                5.75%    passed     29.93%
****  TOTAL                     4.44%  18 sequences failed composition chi2 test (p-value<5%; df=19)
NOTE: stela_AcSp is identical to palu_AcSp but kept for subsequent analysis
NOTE: T_lauta_AgSp is identical to T_praedonia_AgSp but kept for subsequent analysis
NOTE: T_waikamoi_SP1 is identical to T_brevignatha_SP1 but kept for subsequent analysis
NOTE: T_stelarobusta_SP is identical to T_filiciphelia_SP but kept for subsequent analysis
NOTE: T_brevignatha_MaSp1 is identical to T_waikamoi_MaSp1 but kept for subsequent analysis
NOTE: waika_PiSp is identical to brevi_PiSp but kept for subsequent analysis
NOTE: stela_PiSp is identical to fili_PiSp but kept for subsequent analysis
NOTE: 1 identical sequences (see below) will be ignored for subsequent analysis
NOTE: T_brevignatha_SP2 (identical to T_brevignatha_SP1) is ignored but added at the end
Alignment was printed to spidroins_TRIMAL.fasta.uniqueseq.phy

For your convenience alignment with unique sequences printed to spidroins_TRIMAL.fasta.uniqueseq.phy


Create initial parsimony tree by phylogenetic likelihood library (PLL)... 0.016 seconds
Perform fast likelihood tree search using LG+I+G model...
Estimate model parameters (epsilon = 5.000)
Perform nearest neighbor interchange...
Estimate model parameters (epsilon = 1.000)
1. Initial log-likelihood: -6575.093
Optimal log-likelihood: -6575.082
Proportion of invariable sites: 0.000
Gamma shape alpha: 5.666
Parameters optimization took 1 rounds (0.084 sec)
Time for fast ML tree search: 0.592 seconds

NOTE: ModelFinder requires 16 MB RAM!
ModelFinder will test up to 546 protein models (sample size: 87) ...
 No. Model         -LnL         df  AIC          AICc         BIC
  1  LG            6616.213     185 13602.426    82422.426    14058.619
  2  LG+I          6616.212     186 13604.424    83168.424    14063.083
  3  LG+G4         6575.083     186 13522.165    83086.165    13980.824
  4  LG+I+G4       6575.082     187 13524.165    83836.165    13985.290
  5  LG+R2         6576.253     187 13526.506    83838.506    13987.631
  6  LG+R3         6573.846     189 13525.692    85345.692    13991.748
 16  LG+F+G4       6520.035     205 13450.071    97910.071    13955.582
 17  LG+F+I+G4     6520.035     206 13452.070    98736.070    13960.047
 18  LG+F+R2       6522.206     206 13456.412    98740.412    13964.389
 29  WAG+G4        6594.906     186 13561.812    83125.812    14020.471
 30  WAG+I+G4      6594.906     187 13563.812    83875.812    14024.937
 31  WAG+R2        6596.644     187 13567.287    83879.287    14028.412
 42  WAG+F+G4      6512.391     205 13434.783    97894.783    13940.294
 43  WAG+F+I+G4    6512.386     206 13436.773    98720.773    13944.750
 44  WAG+F+R2      6514.672     206 13441.344    98725.344    13949.321
 55  JTT+G4        6587.422     186 13546.844    83110.844    14005.502
 56  JTT+I+G4      6587.422     187 13548.844    83860.844    14009.968
 57  JTT+R2        6589.012     187 13552.024    83864.024    14013.149
 68  JTT+F+G4      6541.463     205 13492.926    97952.926    13998.437
 69  JTT+F+I+G4    6541.463     206 13494.926    98778.926    14002.903
 70  JTT+F+R2      6542.449     206 13496.898    98780.898    14004.875
 81  JTTDCMut+G4   6590.671     186 13553.342    83117.342    14012.001
 82  JTTDCMut+I+G4 6590.671     187 13555.342    83867.342    14016.467
 83  JTTDCMut+R2   6592.417     187 13558.835    83870.835    14019.959
 94  JTTDCMut+F+G4 6545.720     205 13501.439    97961.439    14006.951
 95  JTTDCMut+F+I+G4 6545.720     206 13503.440    98787.440    14011.417
 96  JTTDCMut+F+R2 6546.790     206 13505.580    98789.580    14013.557
107  DCMut+G4      6668.455     186 13708.910    83272.910    14167.569
108  DCMut+I+G4    6668.455     187 13710.910    84022.910    14172.035
109  DCMut+R2      6671.981     187 13717.961    84029.961    14179.086
120  DCMut+F+G4    6566.390     205 13542.781    98002.781    14048.292
121  DCMut+F+I+G4  6566.390     206 13544.780    98828.780    14052.757
122  DCMut+F+R2    6569.297     206 13550.594    98834.594    14058.571
133  VT+G4         6602.918     186 13577.835    83141.835    14036.494
134  VT+I+G4       6602.918     187 13579.835    83891.835    14040.960
135  VT+R2         6603.660     187 13581.320    83893.320    14042.445
146  VT+F+G4       6540.000     205 13490.000    97950.000    13995.511
147  VT+F+I+G4     6540.000     206 13492.001    98776.001    13999.978
148  VT+F+R2       6541.146     206 13494.292    98778.292    14002.269
159  PMB+G4        6653.209     186 13678.417    83242.417    14137.076
160  PMB+I+G4      6653.209     187 13680.418    83992.418    14141.542
161  PMB+R2        6653.575     187 13681.151    83993.151    14142.276
172  PMB+F+G4      6574.632     205 13559.264    98019.264    14064.776
173  PMB+F+I+G4    6574.632     206 13561.265    98845.265    14069.242
174  PMB+F+R2      6576.285     206 13564.570    98848.570    14072.547
185  Blosum62+G4   6661.350     186 13694.699    83258.699    14153.358
186  Blosum62+I+G4 6661.350     187 13696.699    84008.699    14157.824
187  Blosum62+R2   6661.808     187 13697.617    84009.617    14158.742
198  Blosum62+F+G4 6574.972     205 13559.944    98019.944    14065.455
199  Blosum62+F+I+G4 6574.972     206 13561.944    98845.944    14069.921
200  Blosum62+F+R2 6576.643     206 13565.285    98849.285    14073.262
211  Dayhoff+G4    6667.948     186 13707.896    83271.896    14166.555
212  Dayhoff+I+G4  6667.948     187 13709.896    84021.896    14171.021
213  Dayhoff+R2    6671.544     187 13717.087    84029.087    14178.212
224  Dayhoff+F+G4  6565.927     205 13541.854    98001.854    14047.365
225  Dayhoff+F+I+G4 6565.926     206 13543.853    98827.853    14051.830
226  Dayhoff+F+R2  6568.864     206 13549.728    98833.728    14057.705
237  mtREV+G4      6863.758     186 14099.516    83663.516    14558.175
238  mtREV+I+G4    6863.758     187 14101.516    84413.516    14562.640
239  mtREV+R2      6870.850     187 14115.701    84427.701    14576.826
250  mtREV+F+G4    6603.322     205 13616.643    98076.643    14122.154
251  mtREV+F+I+G4  6603.322     206 13618.643    98902.643    14126.620
252  mtREV+F+R2    6608.077     206 13628.154    98912.154    14136.131
263  mtART+G4      6871.296     186 14114.593    83678.593    14573.252
264  mtART+I+G4    6871.295     187 14116.591    84428.591    14577.716
265  mtART+R2      6895.790     187 14165.580    84477.580    14626.705
276  mtART+F+G4    6744.322     205 13898.644    98358.644    14404.155
277  mtART+F+I+G4  6744.321     206 13900.643    99184.643    14408.620
278  mtART+F+R2    6756.893     206 13925.787    99209.787    14433.764
289  mtZOA+G4      6741.638     186 13855.276    83419.276    14313.935
290  mtZOA+I+G4    6741.638     187 13857.276    84169.276    14318.400
291  mtZOA+R2      6753.353     187 13880.707    84192.707    14341.832
302  mtZOA+F+G4    6651.269     205 13712.538    98172.538    14218.049
303  mtZOA+F+I+G4  6651.269     206 13714.538    98998.538    14222.515
304  mtZOA+F+R2    6659.190     206 13730.380    99014.380    14238.357
315  mtMet+G4      6774.098     186 13920.195    83484.195    14378.854
316  mtMet+I+G4    6774.097     187 13922.195    84234.195    14383.320
317  mtMet+R2      6783.837     187 13941.673    84253.673    14402.798
328  mtMet+F+G4    6583.704     205 13577.408    98037.408    14082.919
329  mtMet+F+I+G4  6583.704     206 13579.408    98863.408    14087.385
330  mtMet+F+R2    6588.204     206 13588.408    98872.408    14096.385
341  mtVer+G4      6868.405     186 14108.809    83672.809    14567.468
342  mtVer+I+G4    6868.404     187 14110.808    84422.808    14571.933
343  mtVer+R2      6880.895     187 14135.789    84447.789    14596.914
354  mtVer+F+G4    6615.911     205 13641.823    98101.823    14147.334
355  mtVer+F+I+G4  6615.911     206 13643.823    98927.823    14151.800
356  mtVer+F+R2    6622.051     206 13656.102    98940.102    14164.079
367  mtInv+G4      6758.885     186 13889.769    83453.769    14348.428
368  mtInv+I+G4    6758.885     187 13891.769    84203.769    14352.894
369  mtInv+R2      6764.373     187 13902.746    84214.746    14363.871
380  mtInv+F+G4    6572.351     205 13554.701    98014.701    14060.212
381  mtInv+F+I+G4  6572.350     206 13556.701    98840.701    14064.678
382  mtInv+F+R2    6575.578     206 13563.155    98847.155    14071.132
393  mtMAM+G4      6975.409     186 14322.818    83886.818    14781.477
394  mtMAM+I+G4    6975.408     187 14324.816    84636.816    14785.941
395  mtMAM+R2      7004.295     187 14382.591    84694.591    14843.716
406  mtMAM+F+G4    6673.780     205 13757.560    98217.560    14263.071
407  mtMAM+F+I+G4  6673.778     206 13759.557    99043.557    14267.534
408  mtMAM+F+R2    6685.618     206 13783.236    99067.236    14291.213
419  HIVb+G4       6812.494     186 13996.988    83560.988    14455.647
420  HIVb+I+G4     6812.494     187 13998.989    84310.989    14460.113
421  HIVb+R2       6814.835     187 14003.669    84315.669    14464.794
432  HIVb+F+G4     6654.937     205 13719.874    98179.874    14225.385
433  HIVb+F+I+G4   6654.937     206 13721.874    99005.874    14229.851
434  HIVb+F+R2     6658.292     206 13728.583    99012.583    14236.560
445  HIVw+G4       7005.447     186 14382.893    83946.893    14841.552
446  HIVw+I+G4     7005.447     187 14384.893    84696.893    14846.018
447  HIVw+R2       7009.568     187 14393.137    84705.137    14854.261
458  HIVw+F+G4     6835.752     205 14081.505    98541.505    14587.016
459  HIVw+F+I+G4   6835.752     206 14083.505    99367.505    14591.482
460  HIVw+F+R2     6840.686     206 14093.372    99377.372    14601.349
471  FLU+G4        6656.794     186 13685.588    83249.588    14144.247
472  FLU+I+G4      6656.794     187 13687.588    83999.588    14148.713
473  FLU+R2        6659.935     187 13693.870    84005.870    14154.995
484  FLU+F+G4      6563.795     205 13537.589    97997.589    14043.101
485  FLU+F+I+G4    6563.795     206 13539.589    98823.589    14047.567
486  FLU+F+R2      6569.880     206 13551.760    98835.760    14059.737
497  rtREV+G4      6699.376     186 13770.753    83334.753    14229.411
498  rtREV+I+G4    6699.376     187 13772.753    84084.753    14233.878
499  rtREV+R2      6700.849     187 13775.699    84087.699    14236.823
510  rtREV+F+G4    6565.458     205 13540.917    98000.917    14046.428
511  rtREV+F+I+G4  6565.458     206 13542.917    98826.917    14050.894
512  rtREV+F+R2    6567.281     206 13546.561    98830.561    14054.538
523  cpREV+G4      6625.388     186 13622.776    83186.776    14081.435
524  cpREV+I+G4    6625.388     187 13624.776    83936.776    14085.901
525  cpREV+R2      6628.017     187 13630.034    83942.034    14091.158
536  cpREV+F+G4    6577.302     205 13564.604    98024.604    14070.115
537  cpREV+F+I+G4  6577.302     206 13566.604    98850.604    14074.581
538  cpREV+F+R2    6581.706     206 13575.412    98859.412    14083.389
Akaike Information Criterion:           WAG+F+G4
Corrected Akaike Information Criterion: LG
Bayesian Information Criterion:         WAG+F+G4
Best-fit model: WAG+F+G4 chosen according to BIC

All model information printed to spidroins_TRIMAL.fasta.model.gz
CPU time for ModelFinder: 34.203 seconds (0h:0m:34s)
Wall-clock time for ModelFinder: 36.029 seconds (0h:0m:36s)
Generating 1000 samples for ultrafast bootstrap (seed: 584568)...

NOTE: 6 MB RAM (0 GB) is required!
Estimate model parameters (epsilon = 0.100)
1. Initial log-likelihood: -6512.391
Optimal log-likelihood: -6512.386
Gamma shape alpha: 6.076
Parameters optimization took 1 rounds (0.057 sec)
Computing ML distances based on estimated model parameters... 0.938 sec
Computing BIONJ tree...
0.014 seconds
Log-likelihood of BIONJ tree: -6540.738
--------------------------------------------------------------------
|             INITIALIZING CANDIDATE TREE SET                      |
--------------------------------------------------------------------
Generating 98 parsimony trees... 1.101 second
Computing log-likelihood of 98 initial trees ... 1.836 seconds
Current best score: -6512.386

Do NNI search on 20 best initial trees
Estimate model parameters (epsilon = 0.100)
BETTER TREE FOUND at iteration 1: -6512.345
Estimate model parameters (epsilon = 0.100)
BETTER TREE FOUND at iteration 2: -6496.271
Estimate model parameters (epsilon = 0.100)
BETTER TREE FOUND at iteration 3: -6495.934
Estimate model parameters (epsilon = 0.100)
BETTER TREE FOUND at iteration 5: -6489.747
Iteration 10 / LogL: -6494.892 / Time: 0h:0m:8s
Iteration 20 / LogL: -6504.323 / Time: 0h:0m:12s
Finish initializing candidate tree set (19)
Current best tree score: -6489.747 / CPU time: 11.440
Number of iterations: 20
--------------------------------------------------------------------
|               OPTIMIZING CANDIDATE TREE SET                      |
--------------------------------------------------------------------
Iteration 30 / LogL: -6490.358 / Time: 0h:0m:17s (0h:0m:45s left)
Estimate model parameters (epsilon = 0.100)
BETTER TREE FOUND at iteration 34: -6487.343
Estimate model parameters (epsilon = 0.100)
BETTER TREE FOUND at iteration 39: -6486.607
Iteration 40 / LogL: -6489.073 / Time: 0h:0m:23s (0h:0m:58s left)
Estimate model parameters (epsilon = 0.100)
BETTER TREE FOUND at iteration 45: -6485.333
Estimate model parameters (epsilon = 0.100)
BETTER TREE FOUND at iteration 48: -6485.095
Iteration 50 / LogL: -6486.328 / Time: 0h:0m:28s (0h:0m:57s left)
Estimate model parameters (epsilon = 0.100)
BETTER TREE FOUND at iteration 51: -6484.946
Estimate model parameters (epsilon = 0.100)
BETTER TREE FOUND at iteration 55: -6484.576
Iteration 60 / LogL: -6495.496 / Time: 0h:0m:34s (0h:0m:55s left)
Estimate model parameters (epsilon = 0.100)
BETTER TREE FOUND at iteration 65: -6484.502
Iteration 70 / LogL: -6489.546 / Time: 0h:0m:40s (0h:0m:55s left)
Estimate model parameters (epsilon = 0.100)
BETTER TREE FOUND at iteration 73: -6483.866
Estimate model parameters (epsilon = 0.100)
BETTER TREE FOUND at iteration 77: -6483.771
Iteration 80 / LogL: -6486.414 / Time: 0h:0m:46s (0h:0m:57s left)
Estimate model parameters (epsilon = 0.100)
BETTER TREE FOUND at iteration 89: -6483.248
Iteration 90 / LogL: -6489.222 / Time: 0h:0m:53s (0h:0m:59s left)
Iteration 100 / LogL: -6485.347 / Time: 0h:0m:58s (0h:0m:52s left)
Iteration 110 / LogL: -6487.866 / Time: 0h:1m:3s (0h:0m:46s left)
Iteration 120 / LogL: -6483.675 / Time: 0h:1m:10s (0h:0m:40s left)
UPDATE BEST LOG-LIKELIHOOD: -6483.248
Iteration 130 / LogL: -6486.757 / Time: 0h:1m:15s (0h:0m:34s left)
Iteration 140 / LogL: -6483.820 / Time: 0h:1m:21s (0h:0m:28s left)
Iteration 150 / LogL: -6485.177 / Time: 0h:1m:27s (0h:0m:22s left)
Iteration 160 / LogL: -6484.042 / Time: 0h:1m:32s (0h:0m:16s left)
Iteration 170 / LogL: -6484.809 / Time: 0h:1m:37s (0h:0m:10s left)
Iteration 180 / LogL: -6483.653 / Time: 0h:1m:42s (0h:0m:5s left)
Iteration 190 / LogL: -6484.035 / Time: 0h:1m:48s (0h:0m:-1s left)
Refining ufboot trees with NNI 1 branch...
100 samples done
200 samples done
300 samples done
400 samples done
500 samples done
600 samples done
700 samples done
800 samples done
900 samples done
1000 samples done
Total 1000 ufboot trees refined
TREE SEARCH COMPLETED AFTER 190 ITERATIONS / Time: 0h:3m:45s

--------------------------------------------------------------------
|                    FINALIZING TREE SEARCH                        |
--------------------------------------------------------------------
Performs final model parameters optimization
Estimate model parameters (epsilon = 0.010)
1. Initial log-likelihood: -6483.248
Optimal log-likelihood: -6483.248
Gamma shape alpha: 5.358
Parameters optimization took 1 rounds (0.052 sec)
BEST SCORE FOUND : -6483.248

Testing tree branches by SH-like aLRT with 1000 replicates...
0.338 sec.
Creating bootstrap support values...
Split supports printed to NEXUS file spidroins_TRIMAL.fasta.splits.nex
Total tree length: 23.526

Total number of iterations: 190
CPU time used for tree search: 209.453 sec (0h:3m:29s)
Wall-clock time used for tree search: 224.657 sec (0h:3m:44s)
Total CPU time used: 211.094 sec (0h:3m:31s)
Total wall-clock time used: 226.739 sec (0h:3m:46s)
UFBoot trees printed to spidroins_TRIMAL.fasta.ufboot

Computing bootstrap consensus tree...
Reading input file spidroins_TRIMAL.fasta.splits.nex...
94 taxa and 1116 splits.
Consensus tree written to spidroins_TRIMAL.fasta.contree
Reading input trees file spidroins_TRIMAL.fasta.contree
Log-likelihood of consensus tree: -6484.912

Analysis results written to: 
  IQ-TREE report:                spidroins_TRIMAL.fasta.iqtree
  Maximum-likelihood tree:       spidroins_TRIMAL.fasta.treefile
  Likelihood distances:          spidroins_TRIMAL.fasta.mldist

Ultrafast bootstrap approximation results written to:
  Split support values:          spidroins_TRIMAL.fasta.splits.nex
  Consensus tree:                spidroins_TRIMAL.fasta.contree
  UFBoot trees:                  spidroins_TRIMAL.fasta.ufboot
  Screen log file:               spidroins_TRIMAL.fasta.log

Date and Time: Mon Apr 27 16:04:59 2020
