{
 "analysis":{
   "authors":"Sergei L Kosakovsky Pond, Ben Murrell, Steven Weaver and Temple iGEM / UCSD viral evolution group",
   "citation":"RELAX: Detecting Relaxed Selection in a Phylogenetic Framework (2015). Mol Biol Evol 32 (3): 820-832",
   "contact":"spond@temple.edu",
   "info":"RELAX (a random effects test of selection relaxation) uses a random effects branch-site model framework to test whether a set of 'Test' branches evolves under relaxed selection relative to a set of 'Reference' branches (R), as measured by the relaxation parameter (K).\n                                                Version 2.1 adds a check for stability in K estimates to try to mitigate convergence problems. \n                                                Version 3 provides support for >2 branch sets.\n                                                Version 3.1 adds LHC + Nedler-Mead initial fit phase and keyword support",
   "requirements":"in-frame codon alignment and a phylogenetic tree, with at least two groups of branches defined using the {} notation (one group can be defined as all unlabeled branches)",
   "version":"3.1"
  },
 "branch attributes":{
   "0":{
     "Eroleonina_COATS_TRINITY_DN479_c0_g1_i14":{
       "General descriptive":0.662902829720655,
       "MG94xREV with separate rates for branch sets":1.004971473921918,
       "Nucleotide GTR":0.4993377532062959,
       "RELAX alternative":0.5259125427279069,
       "RELAX null":0.8730221654508443,
       "RELAX partitioned descriptive":0.6884978367343041,
       "k (general descriptive)":0.3612687080049422,
       "original name":"Eroleonina_COATS_TRINITY_DN479_c0_g1_i14"
      },
     "Node13":{
       "General descriptive":0.007183216953102533,
       "MG94xREV with separate rates for branch sets":0.02079070005157629,
       "Nucleotide GTR":0.02032100308756896,
       "RELAX alternative":0.007228060979470158,
       "RELAX null":0.007239214519285503,
       "RELAX partitioned descriptive":0.007242561123515906,
       "k (general descriptive)":0.4993810113679788
      },
     "Node14":{
       "General descriptive":0.002797219642258095,
       "MG94xREV with separate rates for branch sets":0.009199718743906819,
       "Nucleotide GTR":0.008641406722960127,
       "RELAX alternative":0.002537344239405498,
       "RELAX null":0.002541015640788198,
       "RELAX partitioned descriptive":0.002531960740170925,
       "k (general descriptive)":0.6379742191485324
      },
     "Node15":{
       "General descriptive":0.004177918038444139,
       "MG94xREV with separate rates for branch sets":0.00680235322741964,
       "Nucleotide GTR":0.007045204126348347,
       "RELAX alternative":0.002742313001284653,
       "RELAX null":0.002751969768920788,
       "RELAX partitioned descriptive":0.002736313246386699,
       "k (general descriptive)":0.9042874331195512
      },
     "Node16":{
       "General descriptive":0.00646731600203462,
       "MG94xREV with separate rates for branch sets":0.01949035396701904,
       "Nucleotide GTR":0.01969943280877877,
       "RELAX alternative":0.006552496669112797,
       "RELAX null":0.006547959161095549,
       "RELAX partitioned descriptive":0.006579594964622318,
       "k (general descriptive)":0.2606257149822955
      },
     "Node17":{
       "General descriptive":0.002703636723545521,
       "MG94xREV with separate rates for branch sets":0.007944849916047074,
       "Nucleotide GTR":0.008156206049960295,
       "RELAX alternative":0.002696441240374967,
       "RELAX null":0.002722416317864393,
       "RELAX partitioned descriptive":0.00268906610624745,
       "k (general descriptive)":0.3208341575922683
      },
     "Node18":{
       "General descriptive":0.0006348490484196654,
       "MG94xREV with separate rates for branch sets":0.001853351315014932,
       "Nucleotide GTR":0.001927736662714239,
       "RELAX alternative":0.0006233082378716254,
       "RELAX null":0.0006265135987313653,
       "RELAX partitioned descriptive":0.0006228238766477343,
       "k (general descriptive)":0.3500986094096685
      },
     "Node2":{
       "General descriptive":0.01470947026324163,
       "MG94xREV with separate rates for branch sets":0.0548750217112248,
       "Nucleotide GTR":0.04891344192224202,
       "RELAX alternative":0.01730576569155253,
       "RELAX null":0.01634278035990811,
       "RELAX partitioned descriptive":0.01732577592953071,
       "k (general descriptive)":0.3319545359257529
      },
     "Node21":{
       "General descriptive":0.001375592003309491,
       "MG94xREV with separate rates for branch sets":0.004039743368699701,
       "Nucleotide GTR":0.004073972790900553,
       "RELAX alternative":0.001350825133745212,
       "RELAX null":0.001350499645463378,
       "RELAX partitioned descriptive":0.001351769895873594,
       "k (general descriptive)":0.6374689626281566
      },
     "Node24":{
       "General descriptive":0.003087737484318202,
       "MG94xREV with separate rates for branch sets":0.009461691592326437,
       "Nucleotide GTR":0.00906023622459198,
       "RELAX alternative":0.003027617450425076,
       "RELAX null":0.003035582438083627,
       "RELAX partitioned descriptive":0.003023877292560035,
       "k (general descriptive)":0.08383883373864359
      },
     "Node25":{
       "General descriptive":0.00134210676000212,
       "MG94xREV with separate rates for branch sets":0.003888180809197946,
       "Nucleotide GTR":0.003835544469801379,
       "RELAX alternative":0.001366540310794146,
       "RELAX null":0.001362967024081413,
       "RELAX partitioned descriptive":0.001375579451106318,
       "k (general descriptive)":0.3622126725296059
      },
     "Node29":{
       "General descriptive":0.02282665065304855,
       "MG94xREV with separate rates for branch sets":0.06105360938263212,
       "Nucleotide GTR":0.05602300381451517,
       "RELAX alternative":0.02233885941785084,
       "RELAX null":0.02229125347121979,
       "RELAX partitioned descriptive":0.0223178535941262,
       "k (general descriptive)":0.4828904042385781
      },
     "Node3":{
       "General descriptive":0.02548125837636506,
       "MG94xREV with separate rates for branch sets":0.05489649956975495,
       "Nucleotide GTR":0.04534259430190106,
       "RELAX alternative":0.0245088166944663,
       "RELAX null":0.02537361589669122,
       "RELAX partitioned descriptive":0.02462587618505883,
       "k (general descriptive)":0.4072983044175844
      },
     "Node31":{
       "General descriptive":0.008001900851964604,
       "MG94xREV with separate rates for branch sets":0.0238273374071085,
       "Nucleotide GTR":0.02322322196556465,
       "RELAX alternative":0.008243131826354722,
       "RELAX null":0.008237429999026488,
       "RELAX partitioned descriptive":0.008269960803813509,
       "k (general descriptive)":0.2927884168351309
      },
     "Node34":{
       "General descriptive":0.004389167292498874,
       "MG94xREV with separate rates for branch sets":0.01275199798313947,
       "Nucleotide GTR":0.0135062132387492,
       "RELAX alternative":0.004514046146238718,
       "RELAX null":0.004496164028342157,
       "RELAX partitioned descriptive":0.004532708596810964,
       "k (general descriptive)":0.4129401256515446
      },
     "Node35":{
       "General descriptive":0.01212080488091351,
       "MG94xREV with separate rates for branch sets":0.03520670540758408,
       "Nucleotide GTR":0.03317827204392667,
       "RELAX alternative":0.01262879991415326,
       "RELAX null":0.01260806773425142,
       "RELAX partitioned descriptive":0.01268577796970569,
       "k (general descriptive)":0.3648096229834757
      },
     "Node4":{
       "General descriptive":0.01834616916750986,
       "MG94xREV with separate rates for branch sets":0.04172381350447781,
       "Nucleotide GTR":0.03915255992778463,
       "RELAX alternative":0.01521079412238379,
       "RELAX null":0.01521935865861374,
       "RELAX partitioned descriptive":0.01515588801540356,
       "k (general descriptive)":0.6369286544947969
      },
     "Node41":{
       "General descriptive":0.007844922059361855,
       "MG94xREV with separate rates for branch sets":0.02349247657204982,
       "Nucleotide GTR":0.02192755312731032,
       "RELAX alternative":0.008174898815340831,
       "RELAX null":0.00816182442181663,
       "RELAX partitioned descriptive":0.008196260861541465,
       "k (general descriptive)":0.4216158269074334
      },
     "Node42":{
       "General descriptive":0.03048811748983798,
       "MG94xREV with separate rates for branch sets":0.07732165378016047,
       "Nucleotide GTR":0.06949196690213173,
       "RELAX alternative":0.03013008577265182,
       "RELAX null":0.03007272510047966,
       "RELAX partitioned descriptive":0.03012631428165763,
       "k (general descriptive)":0.452022332514148
      },
     "Node45":{
       "General descriptive":0.01541455468775437,
       "MG94xREV with separate rates for branch sets":0.04052667614599247,
       "Nucleotide GTR":0.03880249295228692,
       "RELAX alternative":0.01505842773422842,
       "RELAX null":0.01502851524951242,
       "RELAX partitioned descriptive":0.01508957125592774,
       "k (general descriptive)":0.4707954529647632
      },
     "Node46":{
       "General descriptive":0.0001232648659292262,
       "MG94xREV with separate rates for branch sets":0.0003681231049719323,
       "Nucleotide GTR":0.0003891003676118884,
       "RELAX alternative":0.0001237171542893371,
       "RELAX null":0.0001236875975360083,
       "RELAX partitioned descriptive":0.0001236174092078487,
       "k (general descriptive)":0.3612921644420476
      },
     "Node50":{
       "General descriptive":0.008846567933918434,
       "MG94xREV with separate rates for branch sets":0.02458073810576103,
       "Nucleotide GTR":0.02328394159464502,
       "RELAX alternative":0.008950318046913581,
       "RELAX null":0.008919164541116482,
       "RELAX partitioned descriptive":0.008986156654022266,
       "k (general descriptive)":0.3117174499176796
      },
     "Node51":{
       "General descriptive":0.007224587812441965,
       "MG94xREV with separate rates for branch sets":0.02488813713298564,
       "Nucleotide GTR":0.02386981947524567,
       "RELAX alternative":0.00780190946413005,
       "RELAX null":0.007796489017741205,
       "RELAX partitioned descriptive":0.007847191338859629,
       "k (general descriptive)":0.2316295359428165
      },
     "Node53":{
       "General descriptive":0.02219026598342348,
       "MG94xREV with separate rates for branch sets":0.06362325284754851,
       "Nucleotide GTR":0.05642276893716189,
       "RELAX alternative":0.02251441802604441,
       "RELAX null":0.02249404819070773,
       "RELAX partitioned descriptive":0.02250817248339804,
       "k (general descriptive)":0.4097838701413637
      },
     "Node56":{
       "General descriptive":0.00487039213973572,
       "MG94xREV with separate rates for branch sets":0.01334835835352561,
       "Nucleotide GTR":0.01535298175617883,
       "RELAX alternative":0.004585485061078252,
       "RELAX null":0.004592227232250941,
       "RELAX partitioned descriptive":0.004615737453138953,
       "k (general descriptive)":0.5601570883981934
      },
     "Node57":{
       "General descriptive":0.02959857894777919,
       "MG94xREV with separate rates for branch sets":0.07447307200070638,
       "Nucleotide GTR":0.06680326165192302,
       "RELAX alternative":0.02961735395746394,
       "RELAX null":0.02955023195910454,
       "RELAX partitioned descriptive":0.02958513188160253,
       "k (general descriptive)":0.4404552432318976
      },
     "Node60":{
       "General descriptive":0.04772969120372261,
       "MG94xREV with separate rates for branch sets":0.1282200158225451,
       "Nucleotide GTR":0.1092903060608636,
       "RELAX alternative":0.05207657457107259,
       "RELAX null":0.05199920665588862,
       "RELAX partitioned descriptive":0.0520581194468275,
       "k (general descriptive)":0.345988693424082
      },
     "Node7":{
       "General descriptive":0.01556739187108785,
       "MG94xREV with separate rates for branch sets":0.01069616161808526,
       "Nucleotide GTR":0.01199591402835459,
       "RELAX alternative":0.003511798229986478,
       "RELAX null":0.003479069686210777,
       "RELAX partitioned descriptive":0.003531717132965823,
       "k (general descriptive)":1.113571379468608
      },
     "Node8":{
       "General descriptive":0.009636055301476645,
       "MG94xREV with separate rates for branch sets":0.02883705601626875,
       "Nucleotide GTR":0.02761685563711327,
       "RELAX alternative":0.01010749407824504,
       "RELAX null":0.0100912053482494,
       "RELAX partitioned descriptive":0.01016817102637941,
       "k (general descriptive)":0.2552910934590747
      },
     "Tbrevi_COATS_TRINITY_DN29559_c0_g1_i2":{
       "General descriptive":0.001549016641463284,
       "MG94xREV with separate rates for branch sets":0.004525114007287037,
       "Nucleotide GTR":0.004653492951760299,
       "RELAX alternative":0.001550439067887763,
       "RELAX null":0.00155026761823094,
       "RELAX partitioned descriptive":0.001552486563018012,
       "k (general descriptive)":0.3593663036583558,
       "original name":"Tbrevi_COATS_TRINITY_DN29559_c0_g1_i2"
      },
     "Tcaudicula_COATS_Gene_224043IDV1955_W1_S20031738":{
       "General descriptive":0.0006896019919823496,
       "MG94xREV with separate rates for branch sets":0.002041283778535242,
       "Nucleotide GTR":0.002054443027328839,
       "RELAX alternative":0.0006961417597041398,
       "RELAX null":0.0006957356844695337,
       "RELAX partitioned descriptive":0.0006969856482566581,
       "k (general descriptive)":0.3684448371649032,
       "original name":"Tcaudicula_COATS_Gene_224043IDV1955-W1_S20031738"
      },
     "Tcaudicula_COATS_Gene_55154IDV1955_W1_S20007864":{
       "General descriptive":0.0001300790811396227,
       "MG94xREV with separate rates for branch sets":0.0003888952252294896,
       "Nucleotide GTR":0.0003941396799475504,
       "RELAX alternative":0.0001304907997508702,
       "RELAX null":0.0001304769548965795,
       "RELAX partitioned descriptive":0.0001304665957234445,
       "k (general descriptive)":0.361228332299055,
       "original name":"Tcaudicula_COATS_Gene_55154IDV1955-W1_S20007864"
      },
     "Tcaudicula_COATS_Gene_98179IDV1955_W1_S20013937":{
       "General descriptive":0,
       "MG94xREV with separate rates for branch sets":0,
       "Nucleotide GTR":0,
       "RELAX alternative":0,
       "RELAX null":0,
       "RELAX partitioned descriptive":0,
       "k (general descriptive)":0.3793575870040501,
       "original name":"Tcaudicula_COATS_Gene_98179IDV1955-W1_S20013937"
      },
     "Tchauliodus_COATS_Gene_287397IDV5657_W1_S110033833":{
       "General descriptive":0.04405367035129643,
       "MG94xREV with separate rates for branch sets":0.1035220202372244,
       "Nucleotide GTR":0.09181547634097861,
       "RELAX alternative":0.04218717256913532,
       "RELAX null":0.04206918732880319,
       "RELAX partitioned descriptive":0.04203172217171644,
       "k (general descriptive)":0.4772075767672402,
       "original name":"Tchauliodus_COATS_Gene_287397IDV5657-W1_S110033833"
      },
     "Textensa_COATS_Gene_7484IDV5418_W1_S180000948":{
       "General descriptive":0.01544016368799093,
       "MG94xREV with separate rates for branch sets":0.03746224713370001,
       "Nucleotide GTR":0.03669226014392841,
       "RELAX alternative":0.01470677425568346,
       "RELAX null":0.01467764187678729,
       "RELAX partitioned descriptive":0.0147181501962406,
       "k (general descriptive)":0.4938907064364065,
       "original name":"Textensa_COATS_Gene_7484IDV5418-W1_S180000948"
      },
     "Tfili_COATS_TRINITY_DN28499_c4_g1_i2":{
       "General descriptive":0.004540585625962021,
       "MG94xREV with separate rates for branch sets":0.01364419362055506,
       "Nucleotide GTR":0.01385369649867877,
       "RELAX alternative":0.004575757320794586,
       "RELAX null":0.00457635894916195,
       "RELAX partitioned descriptive":0.00457988584275201,
       "k (general descriptive)":0.2043697326989836,
       "original name":"Tfili_COATS_TRINITY_DN28499_c4_g1_i2"
      },
     "Tiriomotensis_COATS_Gene_147762IDV2587_W1_S120018594":{
       "General descriptive":0.0002145805160558528,
       "MG94xREV with separate rates for branch sets":0.0006175005435487638,
       "Nucleotide GTR":0.0009192998658574313,
       "RELAX alternative":0.0002191173757355127,
       "RELAX null":0.00021898493191854,
       "RELAX partitioned descriptive":0.0002198091640317289,
       "k (general descriptive)":0.3615853679930686,
       "original name":"Tiriomotensis_COATS_Gene_147762IDV2587-W1_S120018594"
      },
     "Tiriomotensis_COATS_Gene_279520IDV2587_W1_S120035120":{
       "General descriptive":0.0002539478809030744,
       "MG94xREV with separate rates for branch sets":0.0007722249291610295,
       "Nucleotide GTR":0.0003775821299174532,
       "RELAX alternative":0.000252572352706228,
       "RELAX null":0.000252494118322443,
       "RELAX partitioned descriptive":0.0002523734691270512,
       "k (general descriptive)":1.619761296428387,
       "original name":"Tiriomotensis_COATS_Gene_279520IDV2587-W1_S120035120"
      },
     "Tlauta_COATS_Gene_25418IDV4020_W1_S220003837":{
       "General descriptive":0.0002566066035956752,
       "MG94xREV with separate rates for branch sets":0.0007641321908698268,
       "Nucleotide GTR":0.0004688531678868507,
       "RELAX alternative":0.0002578077758936786,
       "RELAX null":0.0002577931269533931,
       "RELAX partitioned descriptive":0.0002578774901771038,
       "k (general descriptive)":0.3627625909704673,
       "original name":"Tlauta_COATS_Gene_25418IDV4020-W1_S220003837"
      },
     "Tlauta_COATS_Gene_39591IDV4020_W1_S220005967":{
       "General descriptive":0,
       "MG94xREV with separate rates for branch sets":0,
       "Nucleotide GTR":0.0003158938915483576,
       "RELAX alternative":0,
       "RELAX null":0,
       "RELAX partitioned descriptive":0,
       "k (general descriptive)":0.3793575870040501,
       "original name":"Tlauta_COATS_Gene_39591IDV4020-W1_S220005967"
      },
     "Tmakiharai_COATS_Gene_178974IDV4735_W1_S250027762":{
       "General descriptive":0.0004038076585135953,
       "MG94xREV with separate rates for branch sets":0.00119697274390426,
       "Nucleotide GTR":0.001287287262031397,
       "RELAX alternative":0.0004072822143214281,
       "RELAX null":0.0004074891144047705,
       "RELAX partitioned descriptive":0.0004079677951619733,
       "k (general descriptive)":0.3645369241936657,
       "original name":"Tmakiharai_COATS_Gene_178974IDV4735-W1_S250027762"
      },
     "Tmakiharai_COATS_Gene_199208IDV4735_W1_S250030898":{
       "General descriptive":0.0007735185619551018,
       "MG94xREV with separate rates for branch sets":0.002302549120212451,
       "Nucleotide GTR":0.002254910825000395,
       "RELAX alternative":0.0007788408062555699,
       "RELAX null":0.0007778967232378034,
       "RELAX partitioned descriptive":0.0007791531321286693,
       "k (general descriptive)":0.3673364292251739,
       "original name":"Tmakiharai_COATS_Gene_199208IDV4735-W1_S250030898"
      },
     "Tmaxillosa_COATS_Gene_266746IDV915_W1_S130032679":{
       "General descriptive":0.0003929672500287397,
       "MG94xREV with separate rates for branch sets":0.00115501974655053,
       "Nucleotide GTR":0.0009035854126956194,
       "RELAX alternative":0.0003934788868397276,
       "RELAX null":0.0003933497267141958,
       "RELAX partitioned descriptive":0.000393501950375226,
       "k (general descriptive)":0.3644799850289397,
       "original name":"Tmaxillosa_COATS_Gene_266746IDV915-W1_S130032679"
      },
     "Tmaxillosa_COATS_Gene_50180IDV915_W1_S130006194":{
       "General descriptive":0.0001353413559235353,
       "MG94xREV with separate rates for branch sets":0.0004188763878463903,
       "Nucleotide GTR":0.0006689887134386549,
       "RELAX alternative":0.0001372605944308641,
       "RELAX null":0.0001372375399993777,
       "RELAX partitioned descriptive":0.0001375318957751381,
       "k (general descriptive)":0.3612933617831613,
       "original name":"Tmaxillosa_COATS_Gene_50180IDV915-W1_S130006194"
      },
     "Tnitens_COATS_Gene_23867IDV2801_W1_S50003489":{
       "General descriptive":0,
       "MG94xREV with separate rates for branch sets":0,
       "Nucleotide GTR":0,
       "RELAX alternative":0,
       "RELAX null":0,
       "RELAX partitioned descriptive":0,
       "k (general descriptive)":0.3806812828057434,
       "original name":"Tnitens_COATS_Gene_23867IDV2801-W1_S50003489"
      },
     "Tnitens_COATS_Gene_251430IDV2801_W1_S50036012":{
       "General descriptive":0.0002577221801080086,
       "MG94xREV with separate rates for branch sets":0.0007686202954694919,
       "Nucleotide GTR":0.0007829736385751586,
       "RELAX alternative":0.000259081184527371,
       "RELAX null":0.0002589611083762469,
       "RELAX partitioned descriptive":0.000259142761622099,
       "k (general descriptive)":0.3627538516889119,
       "original name":"Tnitens_COATS_Gene_251430IDV2801-W1_S50036012"
      },
     "Tpalu_COATS_TRINITY_DN20510_c0_g1_i3":{
       "General descriptive":0.001144070020916323,
       "MG94xREV with separate rates for branch sets":0.003331432167874316,
       "Nucleotide GTR":0.003427091952924288,
       "RELAX alternative":0.001140761245551481,
       "RELAX null":0.001140161637092347,
       "RELAX partitioned descriptive":0.001142667877426493,
       "k (general descriptive)":0.3601555575997393,
       "original name":"Tpalu_COATS_TRINITY_DN20510_c0_g1_i3"
      },
     "Tperreirai2_COATS_TRINITY_DN18471_c0_g1_i1":{
       "General descriptive":0.004407707691143137,
       "MG94xREV with separate rates for branch sets":0.01287771136054389,
       "Nucleotide GTR":0.01318853362020438,
       "RELAX alternative":0.004357319530824205,
       "RELAX null":0.004432956680160612,
       "RELAX partitioned descriptive":0.004331175852600557,
       "k (general descriptive)":0.2729641704464063,
       "original name":"Tperreirai2_COATS_TRINITY_DN18471_c0_g1_i1"
      },
     "Tpraedonia_COATS_Gene_103061IDV2674_W1_S160013443":{
       "General descriptive":0.0003960274677517288,
       "MG94xREV with separate rates for branch sets":0.001177429345322416,
       "Nucleotide GTR":0.001181809397848849,
       "RELAX alternative":0.0003983196964771222,
       "RELAX null":0.0003982017055265963,
       "RELAX partitioned descriptive":0.0003986250251847099,
       "k (general descriptive)":0.3645009913413761,
       "original name":"Tpraedonia_COATS_Gene_103061IDV2674-W1_S160013443"
      },
     "Tpraedonia_COATS_Gene_260168IDV2674_W1_S160033683":{
       "General descriptive":0.0002587542708524595,
       "MG94xREV with separate rates for branch sets":0.0007714498230786845,
       "Nucleotide GTR":0.0007853708715491274,
       "RELAX alternative":0.0002601306497927209,
       "RELAX null":0.0002600064328249946,
       "RELAX partitioned descriptive":0.0002601824143644451,
       "k (general descriptive)":0.3628427938649169,
       "original name":"Tpraedonia_COATS_Gene_260168IDV2674-W1_S160033683"
      },
     "Tpraedonia_COATS_Gene_36084IDV2674_W1_S160004696":{
       "General descriptive":0,
       "MG94xREV with separate rates for branch sets":0,
       "Nucleotide GTR":0,
       "RELAX alternative":0,
       "RELAX null":0,
       "RELAX partitioned descriptive":0,
       "k (general descriptive)":0.3793575870040501,
       "original name":"Tpraedonia_COATS_Gene_36084IDV2674-W1_S160004696"
      },
     "Tquasi_COATS_TRINITY_DN22905_c0_g1_i1":{
       "General descriptive":0.001840970452423031,
       "MG94xREV with separate rates for branch sets":0.0056116113423157,
       "Nucleotide GTR":0.005446829949331047,
       "RELAX alternative":0.001846446725152523,
       "RELAX null":0.001848219934786142,
       "RELAX partitioned descriptive":0.001849638319206791,
       "k (general descriptive)":0.7300990450672025,
       "original name":"Tquasi_COATS_TRINITY_DN22905_c0_g1_i1"
      },
     "Tshinanoensis_COATS_Gene_141172IDV3472_W1_S190018022":{
       "General descriptive":0.003612537548463845,
       "MG94xREV with separate rates for branch sets":0.01053474996669339,
       "Nucleotide GTR":0.01094699551548032,
       "RELAX alternative":0.003727826000796436,
       "RELAX null":0.003727693631568032,
       "RELAX partitioned descriptive":0.003740055726296326,
       "k (general descriptive)":0.3463508658590122,
       "original name":"Tshinanoensis_COATS_Gene_141172IDV3472-W1_S190018022"
      },
     "Tsquamata_COATS_Gene_122671IDV1093_W1_S60015647":{
       "General descriptive":0.0007951985816955475,
       "MG94xREV with separate rates for branch sets":0.002347962307821156,
       "Nucleotide GTR":0.002296692343843862,
       "RELAX alternative":0.0008038701166272322,
       "RELAX null":0.0008037357143710275,
       "RELAX partitioned descriptive":0.0008051743799970721,
       "k (general descriptive)":0.3699549347231536,
       "original name":"Tsquamata_COATS_Gene_122671IDV1093-W1_S60015647"
      },
     "Tsquamata_COATS_Gene_87630IDV1093_W1_S60011157":{
       "General descriptive":0.0005154624719620566,
       "MG94xREV with separate rates for branch sets":0.001532442366873351,
       "Nucleotide GTR":0.001633909209828551,
       "RELAX alternative":0.0005196564141492084,
       "RELAX null":0.0005190752899474061,
       "RELAX partitioned descriptive":0.0005202472606303899,
       "k (general descriptive)":0.3659343573927066,
       "original name":"Tsquamata_COATS_Gene_87630IDV1093-W1_S60011157"
      },
     "Tstela_COATS_TRINITY_DN24609_c0_g1_i3":{
       "General descriptive":0.001860747179742684,
       "MG94xREV with separate rates for branch sets":0.005639344686779873,
       "Nucleotide GTR":0.005631855003859491,
       "RELAX alternative":0.001894888558042595,
       "RELAX null":0.001893482626521774,
       "RELAX partitioned descriptive":0.001896217524040267,
       "k (general descriptive)":0.209759474725777,
       "original name":"Tstela_COATS_TRINITY_DN24609_c0_g1_i3"
      },
     "Ttanigawai_COATS_Gene_273277IDV5097_W1_S160031782":{
       "General descriptive":0,
       "MG94xREV with separate rates for branch sets":0,
       "Nucleotide GTR":0,
       "RELAX alternative":0,
       "RELAX null":0,
       "RELAX partitioned descriptive":0,
       "k (general descriptive)":0.3806063272316308,
       "original name":"Ttanigawai_COATS_Gene_273277IDV5097-W1_S160031782"
      },
     "Ttanigawai_COATS_Gene_64655IDV5097_W1_S160007544":{
       "General descriptive":0.0005215352215872977,
       "MG94xREV with separate rates for branch sets":0.001526652765364393,
       "Nucleotide GTR":0.001567625517299602,
       "RELAX alternative":0.0005156774005083845,
       "RELAX null":0.0005153364143133405,
       "RELAX partitioned descriptive":0.0005159574539262481,
       "k (general descriptive)":0.4988879044063278,
       "original name":"Ttanigawai_COATS_Gene_64655IDV5097-W1_S160007544"
      },
     "Twaika_COATS_TRINITY_DN21170_c0_g1_i1":{
       "General descriptive":0.00188286427307424,
       "MG94xREV with separate rates for branch sets":0.00568338921823905,
       "Nucleotide GTR":0.005712539511239859,
       "RELAX alternative":0.001883805958827037,
       "RELAX null":0.001868406789927201,
       "RELAX partitioned descriptive":0.001888239631886155,
       "k (general descriptive)":0.1322791136728454,
       "original name":"Twaika_COATS_TRINITY_DN21170_c0_g1_i1"
      },
     "Tyesoensis_COATS_Gene_49019IDV334_W1_S220005570":{
       "General descriptive":0.005831692909138972,
       "MG94xREV with separate rates for branch sets":0.01652393162530406,
       "Nucleotide GTR":0.01686024153377342,
       "RELAX alternative":0.0059937088299864,
       "RELAX null":0.005989470403077951,
       "RELAX partitioned descriptive":0.006018240404846358,
       "k (general descriptive)":0.3469951953881846,
       "original name":"Tyesoensis_COATS_Gene_49019IDV334-W1_S220005570"
      }
    },
   "attributes":{
     "General descriptive":{
       "attribute type":"branch length",
       "display order":4
      },
     "MG94xREV with separate rates for branch sets":{
       "attribute type":"branch length",
       "display order":1
      },
     "Nucleotide GTR":{
       "attribute type":"branch length",
       "display order":0
      },
     "RELAX alternative":{
       "attribute type":"branch length",
       "display order":2
      },
     "RELAX null":{
       "attribute type":"branch length",
       "display order":3
      },
     "RELAX partitioned descriptive":{
       "attribute type":"branch length",
       "display order":5
      },
     "k (general descriptive)":{
       "attribute type":"branch label",
       "display order":4
      },
     "original name":{
       "attribute type":"node label",
       "display order":-1
      }
    }
  },
 "data partitions":{
   "0":{
     "coverage":      [
[0, 1, 2, 3, 4, 5, 6, 7, 8, 9, 10, 11, 12, 13, 14, 15, 16, 17, 18, 19, 20, 21, 22, 23, 24, 25, 26, 27, 28, 29, 30, 31, 32, 33, 34, 35, 36, 37, 38, 39, 40, 41, 42, 43, 44, 45, 46, 47, 48, 49, 50, 51, 52, 53, 54, 55, 56, 57, 58, 59, 60, 61, 62, 63, 64, 65, 66, 67, 68, 69, 70, 71, 72, 73, 74, 75, 76, 77, 78, 79, 80, 81, 82, 83, 84, 85, 86, 87, 88, 89, 90, 91, 92, 93, 94, 95, 96, 97, 98, 99, 100, 101, 102, 103, 104, 105, 106, 107, 108, 109, 110, 111, 112, 113, 114, 115, 116, 117, 118, 119, 120, 121, 122, 123, 124, 125, 126, 127, 128, 129, 130, 131, 132, 133, 134, 135, 136, 137, 138, 139, 140, 141, 142, 143, 144, 145, 146, 147, 148, 149, 150, 151, 152, 153, 154, 155, 156, 157, 158, 159, 160, 161, 162, 163, 164, 165, 166, 167, 168, 169, 170, 171, 172, 173, 174, 175, 176, 177, 178, 179, 180, 181, 182, 183, 184, 185, 186, 187, 188, 189, 190, 191, 192, 193, 194, 195, 196, 197, 198, 199, 200, 201, 202, 203, 204, 205, 206, 207, 208, 209, 210, 211, 212, 213, 214, 215, 216, 217, 218, 219, 220, 221, 222, 223, 224, 225, 226, 227, 228, 229, 230, 231, 232, 233, 234, 235, 236, 237, 238, 239, 240, 241, 242, 243, 244, 245, 246, 247, 248, 249, 250, 251, 252, 253, 254, 255, 256, 257, 258, 259, 260, 261, 262, 263, 264, 265, 266, 267, 268, 269, 270, 271, 272, 273, 274, 275, 276, 277, 278, 279, 280, 281, 282, 283, 284, 285, 286, 287, 288, 289, 290, 291, 292, 293, 294, 295, 296, 297, 298, 299, 300, 301, 302, 303, 304, 305, 306, 307, 308, 309, 310, 311, 312, 313, 314, 315, 316, 317, 318, 319, 320, 321, 322, 323, 324, 325, 326, 327, 328, 329, 330, 331, 332, 333, 334, 335, 336, 337, 338, 339, 340, 341, 342, 343, 344, 345, 346, 347, 348, 349, 350, 351, 352, 353, 354, 355, 356, 357, 358, 359, 360, 361, 362, 363, 364, 365, 366, 367, 368, 369, 370, 371, 372, 373, 374, 375, 376, 377, 378, 379, 380, 381, 382, 383, 384, 385, 386, 387, 388, 389, 390, 391, 392, 393, 394, 395, 396, 397, 398, 399, 400, 401, 402, 403, 404, 405, 406, 407, 408, 409, 410, 411, 412, 413, 414, 415, 416, 417, 418, 419, 420, 421, 422, 423, 424, 425, 426, 427, 428, 429, 430, 431, 432, 433, 434, 435, 436, 437, 438, 439, 440, 441, 442, 443, 444, 445, 446, 447, 448, 449, 450, 451, 452, 453, 454, 455, 456, 457, 458, 459, 460, 461, 462, 463, 464, 465, 466, 467, 468, 469, 470, 471, 472, 473, 474, 475, 476, 477, 478, 479, 480, 481, 482, 483, 484, 485, 486, 487, 488, 489, 490, 491, 492, 493, 494, 495, 496, 497, 498, 499, 500, 501, 502, 503, 504, 505, 506, 507, 508, 509, 510, 511, 512, 513, 514, 515, 516, 517, 518, 519, 520, 521, 522, 523, 524, 525, 526, 527, 528, 529, 530, 531, 532, 533, 534, 535, 536, 537, 538, 539, 540, 541, 542, 543, 544, 545, 546, 547, 548, 549, 550, 551, 552, 553, 554, 555, 556, 557, 558, 559, 560, 561, 562, 563, 564, 565, 566, 567, 568, 569, 570, 571, 572, 573, 574, 575, 576, 577, 578, 579, 580, 581, 582, 583, 584, 585, 586, 587, 588, 589, 590, 591, 592, 593, 594, 595, 596, 597, 598, 599, 600, 601, 602, 603, 604, 605, 606, 607, 608, 609, 610, 611, 612, 613, 614, 615, 616, 617, 618, 619, 620, 621, 622, 623, 624, 625, 626, 627, 628, 629, 630, 631, 632, 633, 634, 635, 636, 637, 638, 639, 640, 641, 642, 643, 644, 645, 646, 647, 648, 649, 650, 651, 652, 653, 654, 655, 656, 657, 658, 659, 660, 661, 662, 663, 664, 665, 666, 667, 668, 669, 670, 671, 672, 673, 674, 675, 676, 677, 678, 679, 680, 681, 682, 683, 684, 685, 686, 687, 688, 689, 690, 691, 692, 693, 694, 695, 696, 697, 698, 699, 700, 701, 702, 703, 704, 705, 706, 707, 708, 709, 710, 711, 712, 713, 714, 715, 716, 717, 718, 719, 720, 721, 722, 723, 724, 725, 726, 727, 728, 729, 730, 731, 732, 733, 734, 735, 736, 737, 738, 739, 740, 741, 742, 743, 744, 745, 746, 747, 748, 749, 750, 751, 752, 753, 754, 755, 756, 757, 758, 759, 760, 761, 762, 763, 764, 765, 766, 767, 768, 769, 770, 771, 772, 773, 774, 775, 776, 777, 778, 779, 780, 781, 782, 783, 784, 785, 786, 787, 788, 789, 790, 791, 792, 793, 794, 795, 796, 797, 798, 799, 800, 801, 802, 803, 804, 805, 806, 807, 808, 809, 810, 811, 812, 813, 814, 815, 816, 817, 818, 819, 820, 821, 822, 823, 824, 825, 826, 827, 828, 829, 830, 831, 832, 833, 834, 835, 836, 837, 838, 839, 840, 841, 842, 843, 844, 845, 846, 847, 848, 849, 850] 
      ],
     "name":"relax.filter.default"
    }
  },
 "fits":{
   "General descriptive":{
     "AIC-c":34047.67543314739,
     "Log Likelihood":-16884.1194233506,
     "Rate Distributions":{
       "Shared":{
         "0":{
           "omega":1e-08,
           "proportion":0.6109487116244783
          },
         "1":{
           "omega":0.004259049661365686,
           "proportion":0.3772920663157441
          },
         "2":{
           "omega":112.5818924951771,
           "proportion":0.01175922205977753
          }
        }
      },
     "display order":4,
     "estimated parameters":139
    },
   "MG94xREV with separate rates for branch sets":{
     "AIC-c":34412.905632707,
     "Equilibrium frequencies":      [
[0.01311496905807652],
      [0.02468275452805586],
      [0.01704979343910416],
      [0.01075500183052255],
      [0.01301388649447541],
      [0.02449251419326099],
      [0.01691838353473746],
      [0.01067210852351209],
      [0.01005145050235242],
      [0.01891712319730438],
      [0.01306714137636119],
      [0.008242746747895251],
      [0.01529500300674242],
      [0.02878564204379969],
      [0.01988389303555715],
      [0.01254275054763175],
      [0.008019175475784622],
      [0.01509232228529765],
      [0.01042513213783443],
      [0.006576168539889357],
      [0.007957368329197396],
      [0.01497599943157711],
      [0.01034478127480866],
      [0.006525483252585868],
      [0.006145980597254205],
      [0.01156691485465604],
      [0.007989931138983159],
      [0.005040044873999839],
      [0.009352161829019944],
      [0.01760104150533226],
      [0.01215804831012315],
      [0.007669291261385895],
      [0.0214855267374123],
      [0.04043638837553668],
      [0.02793173138122183],
      [0.01761932326087401],
      [0.02131992877730119],
      [0.04012472818162626],
      [0.027716449820028],
      [0.01748352375145549],
      [0.01646673412356053],
      [0.03099087420265832],
      [0.02140717329793924],
      [0.01350363503393547],
      [0.02505695549832752],
      [0.04715792153583206],
      [0.03257467963267664],
      [0.0205480928745217],
      [0.01854610349205172],
      [0.008081082554192045],
      [0.009778361061202258],
      [0.01840316089893644],
      [0.0127121181550793],
      [0.008018798263803507],
      [0.01421392917027617],
      [0.009818375661265961],
      [0.006193426834572948],
      [0.01149234411223673],
      [0.02162892702362883],
      [0.01494033972760882],
      [0.009424359403119221] 
      ],
     "Log Likelihood":-17130.237312763,
     "Rate Distributions":{
       "non-synonymous/synonymous rate ratio for *Reference*":        [
[0.08578129789348987, 1] 
        ],
       "non-synonymous/synonymous rate ratio for *Test*":        [
[0.06889051330949081, 1] 
        ]
      },
     "display order":1,
     "estimated parameters":76
    },
   "Nucleotide GTR":{
     "AIC-c":38131.35112068251,
     "Equilibrium frequencies":      [
[0.2285821268097853],
      [0.26827259111333],
      [0.2903020469296056],
      [0.212843235147279] 
      ],
     "Log Likelihood":-18996.61638801871,
     "Rate Distributions":{
       "Substitution rate from nucleotide A to nucleotide C":0.4907005993136792,
       "Substitution rate from nucleotide A to nucleotide G":1,
       "Substitution rate from nucleotide A to nucleotide T":0.4487794597133644,
       "Substitution rate from nucleotide C to nucleotide G":0.4231002594606633,
       "Substitution rate from nucleotide C to nucleotide T":1.433182434028037,
       "Substitution rate from nucleotide G to nucleotide T":0.3371156567466894
      },
     "display order":0,
     "estimated parameters":69
    },
   "RELAX alternative":{
     "AIC-c":33995.45523227756,
     "Log Likelihood":-16917.48895089625,
     "Rate Distributions":{
       "Reference":{
         "0":{
           "omega":0,
           "proportion":0.5860982786184785
          },
         "1":{
           "omega":0.09983503155323137,
           "proportion":0.3999218964680297
          },
         "2":{
           "omega":7.17306678005708,
           "proportion":0.01397982491349172
          }
        },
       "Test":{
         "0":{
           "omega":0,
           "proportion":0.5860982786184785
          },
         "1":{
           "omega":0.1728018288926485,
           "proportion":0.3999218964680297
          },
         "2":{
           "omega":4.487103841652081,
           "proportion":0.01397982491349172
          }
        }
      },
     "display order":2,
     "estimated parameters":80
    },
   "RELAX null":{
     "AIC-c":33995.26070424065,
     "Log Likelihood":-16918.39758841968,
     "Rate Distributions":{
       "Reference":{
         "0":{
           "omega":0,
           "proportion":0.5820924460480702
          },
         "1":{
           "omega":0.1000967061442875,
           "proportion":0.4037128390183137
          },
         "2":{
           "omega":7.017599327655152,
           "proportion":0.014194714933616
          }
        },
       "Test":{
         "0":{
           "omega":0,
           "proportion":0.5820924460480702
          },
         "1":{
           "omega":0.1000967061442875,
           "proportion":0.4037128390183137
          },
         "2":{
           "omega":7.017599327655152,
           "proportion":0.014194714933616
          }
        }
      },
     "display order":3,
     "estimated parameters":79
    },
   "RELAX partitioned descriptive":{
     "AIC-c":34001.68548575277,
     "Log Likelihood":-16916.57973038881,
     "Rate Distributions":{
       "Reference":{
         "0":{
           "omega":0.0009425174653919334,
           "proportion":0.5427142439051585
          },
         "1":{
           "omega":0.09255565685537252,
           "proportion":0.4445844907798135
          },
         "2":{
           "omega":7.797828181939685,
           "proportion":0.01270126531502788
          }
        },
       "Test":{
         "0":{
           "omega":0,
           "proportion":0.5689833352082776
          },
         "1":{
           "omega":0.1085594503822309,
           "proportion":0.3738346433728277
          },
         "2":{
           "omega":1.837743588300962,
           "proportion":0.05718202141889478
          }
        }
      },
     "display order":5,
     "estimated parameters":84
    }
  },
 "input":{
   "file name":"/vortexfs1/home/cberger/RGCB/michael_results/hyphy/family_18703.codon.phylip_renamed.phylip_CLEANED",
   "number of sequences":32,
   "number of sites":851,
   "partition count":1,
   "trees":{
     "0":"((((Tsquamata_COATS_Gene_87630IDV1093_W1_S60011157,Tsquamata_COATS_Gene_122671IDV1093_W1_S60015647)Node4,((Ttanigawai_COATS_Gene_64655IDV5097_W1_S160007544,Ttanigawai_COATS_Gene_273277IDV5097_W1_S160031782)Node8,Tyesoensis_COATS_Gene_49019IDV334_W1_S220005570)Node7)Node3,Eroleonina_COATS_TRINITY_DN479_c0_g1_i14)Node2,((((((Tperreirai2_COATS_TRINITY_DN18471_c0_g1_i1,Tquasi_COATS_TRINITY_DN22905_c0_g1_i1)Node18,(Tbrevi_COATS_TRINITY_DN29559_c0_g1_i2,Twaika_COATS_TRINITY_DN21170_c0_g1_i1)Node21)Node17,((Tstela_COATS_TRINITY_DN24609_c0_g1_i3,Tpalu_COATS_TRINITY_DN20510_c0_g1_i3)Node25,Tfili_COATS_TRINITY_DN28499_c4_g1_i2)Node24)Node16,(Tshinanoensis_COATS_Gene_141172IDV3472_W1_S190018022,(Tiriomotensis_COATS_Gene_147762IDV2587_W1_S120018594,Tiriomotensis_COATS_Gene_279520IDV2587_W1_S120035120)Node31)Node29)Node15,((Tcaudicula_COATS_Gene_224043IDV1955_W1_S20031738,Tcaudicula_COATS_Gene_55154IDV1955_W1_S20007864,Tcaudicula_COATS_Gene_98179IDV1955_W1_S20013937)Node35,Textensa_COATS_Gene_7484IDV5418_W1_S180000948)Node34)Node14,((Tmakiharai_COATS_Gene_178974IDV4735_W1_S250027762,Tmakiharai_COATS_Gene_199208IDV4735_W1_S250030898)Node42,((Tpraedonia_COATS_Gene_36084IDV2674_W1_S160004696,Tpraedonia_COATS_Gene_260168IDV2674_W1_S160033683)Node46,Tpraedonia_COATS_Gene_103061IDV2674_W1_S160013443)Node45)Node41)Node13,((Tchauliodus_COATS_Gene_287397IDV5657_W1_S110033833,(Tmaxillosa_COATS_Gene_50180IDV915_W1_S130006194,Tmaxillosa_COATS_Gene_266746IDV915_W1_S130032679)Node53)Node51,((Tnitens_COATS_Gene_23867IDV2801_W1_S50003489,Tnitens_COATS_Gene_251430IDV2801_W1_S50036012)Node57,(Tlauta_COATS_Gene_25418IDV4020_W1_S220003837,Tlauta_COATS_Gene_39591IDV4020_W1_S220005967)Node60)Node56)Node50)"
    }
  },
 "test results":{
   "LRT":1.817275046858413,
   "p-value":0.1776379781064259,
   "relaxation or intensification parameter":0.761905348396823
  },
 "tested":{
   "0":{
     "Eroleonina_COATS_TRINITY_DN479_c0_g1_i14":"Test",
     "Node13":"Reference",
     "Node14":"Reference",
     "Node15":"Reference",
     "Node16":"Reference",
     "Node17":"Test",
     "Node18":"Test",
     "Node2":"Reference",
     "Node21":"Test",
     "Node24":"Reference",
     "Node25":"Reference",
     "Node29":"Reference",
     "Node3":"Reference",
     "Node31":"Reference",
     "Node34":"Reference",
     "Node35":"Reference",
     "Node4":"Reference",
     "Node41":"Reference",
     "Node42":"Reference",
     "Node45":"Reference",
     "Node46":"Reference",
     "Node50":"Reference",
     "Node51":"Reference",
     "Node53":"Reference",
     "Node56":"Reference",
     "Node57":"Reference",
     "Node60":"Reference",
     "Node7":"Reference",
     "Node8":"Reference",
     "Tbrevi_COATS_TRINITY_DN29559_c0_g1_i2":"Reference",
     "Tcaudicula_COATS_Gene_224043IDV1955_W1_S20031738":"Reference",
     "Tcaudicula_COATS_Gene_55154IDV1955_W1_S20007864":"Reference",
     "Tcaudicula_COATS_Gene_98179IDV1955_W1_S20013937":"Reference",
     "Tchauliodus_COATS_Gene_287397IDV5657_W1_S110033833":"Reference",
     "Textensa_COATS_Gene_7484IDV5418_W1_S180000948":"Reference",
     "Tfili_COATS_TRINITY_DN28499_c4_g1_i2":"Reference",
     "Tiriomotensis_COATS_Gene_147762IDV2587_W1_S120018594":"Reference",
     "Tiriomotensis_COATS_Gene_279520IDV2587_W1_S120035120":"Reference",
     "Tlauta_COATS_Gene_25418IDV4020_W1_S220003837":"Reference",
     "Tlauta_COATS_Gene_39591IDV4020_W1_S220005967":"Reference",
     "Tmakiharai_COATS_Gene_178974IDV4735_W1_S250027762":"Reference",
     "Tmakiharai_COATS_Gene_199208IDV4735_W1_S250030898":"Reference",
     "Tmaxillosa_COATS_Gene_266746IDV915_W1_S130032679":"Reference",
     "Tmaxillosa_COATS_Gene_50180IDV915_W1_S130006194":"Reference",
     "Tnitens_COATS_Gene_23867IDV2801_W1_S50003489":"Reference",
     "Tnitens_COATS_Gene_251430IDV2801_W1_S50036012":"Reference",
     "Tpalu_COATS_TRINITY_DN20510_c0_g1_i3":"Reference",
     "Tperreirai2_COATS_TRINITY_DN18471_c0_g1_i1":"Test",
     "Tpraedonia_COATS_Gene_103061IDV2674_W1_S160013443":"Reference",
     "Tpraedonia_COATS_Gene_260168IDV2674_W1_S160033683":"Reference",
     "Tpraedonia_COATS_Gene_36084IDV2674_W1_S160004696":"Reference",
     "Tquasi_COATS_TRINITY_DN22905_c0_g1_i1":"Reference",
     "Tshinanoensis_COATS_Gene_141172IDV3472_W1_S190018022":"Reference",
     "Tsquamata_COATS_Gene_122671IDV1093_W1_S60015647":"Reference",
     "Tsquamata_COATS_Gene_87630IDV1093_W1_S60011157":"Reference",
     "Tstela_COATS_TRINITY_DN24609_c0_g1_i3":"Reference",
     "Ttanigawai_COATS_Gene_273277IDV5097_W1_S160031782":"Reference",
     "Ttanigawai_COATS_Gene_64655IDV5097_W1_S160007544":"Reference",
     "Twaika_COATS_TRINITY_DN21170_c0_g1_i1":"Test",
     "Tyesoensis_COATS_Gene_49019IDV334_W1_S220005570":"Reference"
    }
  },
 "timers":{
   "General descriptive model fitting":{
     "order":2,
     "timer":132
    },
   "Overall":{
     "order":0,
     "timer":228
    },
   "Preliminary model fitting":{
     "order":1,
     "timer":11
    },
   "RELAX alternative model fitting":{
     "order":3,
     "timer":42
    },
   "RELAX null model fitting":{
     "order":4,
     "timer":13
    },
   "RELAX partitioned descriptive":{
     "order":5,
     "timer":29
    }
  }
}