{
 "analysis":{
   "authors":"Sergei L Kosakovsky Pond, Ben Murrell, Steven Weaver and Temple iGEM / UCSD viral evolution group",
   "citation":"RELAX: Detecting Relaxed Selection in a Phylogenetic Framework (2015). Mol Biol Evol 32 (3): 820-832",
   "contact":"spond@temple.edu",
   "info":"RELAX (a random effects test of selection relaxation) uses a random effects branch-site model framework to test whether a set of 'Test' branches evolves under relaxed selection relative to a set of 'Reference' branches (R), as measured by the relaxation parameter (K).\n                                                Version 2.1 adds a check for stability in K estimates to try to mitigate convergence problems. \n                                                Version 3 provides support for >2 branch sets.\n                                                Version 3.1 adds LHC + Nedler-Mead initial fit phase and keyword support",
   "requirements":"in-frame codon alignment and a phylogenetic tree, with at least two groups of branches defined using the {} notation (one group can be defined as all unlabeled branches)",
   "version":"3.1"
  },
 "branch attributes":{
   "0":{
     "Araneusmarmoreus_COATS_TRINITY_DN26560_c0_g1_i1":{
       "General descriptive":1.412942407539826,
       "MG94xREV with separate rates for branch sets":0.3082566358527642,
       "Nucleotide GTR":0.1856395341471503,
       "RELAX alternative":0.3847062499719573,
       "RELAX null":0.3921950401224373,
       "RELAX partitioned descriptive":0.3835817628083274,
       "k (general descriptive)":1.110205657047417,
       "original name":"Araneusmarmoreus_COATS_TRINITY_DN26560_c0_g1_i1"
      },
     "Australomimetus_COATS_TRINITY_DN242769_c0_g1_i1":{
       "General descriptive":0.1860893320512778,
       "MG94xREV with separate rates for branch sets":0.4455482469940187,
       "Nucleotide GTR":0.3247985184846192,
       "RELAX alternative":1.819064575093502,
       "RELAX null":1.74367242759553,
       "RELAX partitioned descriptive":1.415343442126285,
       "k (general descriptive)":0.1619507480503667,
       "original name":"Australomimetus_COATS_TRINITY_DN242769_c0_g1_i1"
      },
     "Malkaridaesp17_COATS_TRINITY_DN41890_c0_g1_i6":{
       "General descriptive":0.3512829691044548,
       "MG94xREV with separate rates for branch sets":0.5241312826814885,
       "Nucleotide GTR":0.3500054713465757,
       "RELAX alternative":1.424614304194581,
       "RELAX null":1.346333613840542,
       "RELAX partitioned descriptive":2.00329506333176,
       "k (general descriptive)":0.2445785172596287,
       "original name":"Malkaridaesp17_COATS_TRINITY_DN41890_c0_g1_i6"
      },
     "Node11":{
       "General descriptive":0,
       "MG94xREV with separate rates for branch sets":0,
       "Nucleotide GTR":0.03154111782215405,
       "RELAX alternative":0,
       "RELAX null":0,
       "RELAX partitioned descriptive":0,
       "k (general descriptive)":0.569839906501982
      },
     "Node12":{
       "General descriptive":0.06705012626397389,
       "MG94xREV with separate rates for branch sets":0.2985714901855822,
       "Nucleotide GTR":0.1111095697590325,
       "RELAX alternative":0.05911925309772752,
       "RELAX null":0.05896391744773588,
       "RELAX partitioned descriptive":0.05852115476111652,
       "k (general descriptive)":0.2247109919494656
      },
     "Node13":{
       "General descriptive":0.0006521476061522699,
       "MG94xREV with separate rates for branch sets":0,
       "Nucleotide GTR":0.04393506337408674,
       "RELAX alternative":0.004415160996490755,
       "RELAX null":0.00443722915773868,
       "RELAX partitioned descriptive":0.003355841158455352,
       "k (general descriptive)":49.99999999999989
      },
     "Node16":{
       "General descriptive":0.2390833064907326,
       "MG94xREV with separate rates for branch sets":0.7280804249711096,
       "Nucleotide GTR":0.2923954253818462,
       "RELAX alternative":1.422497291699332,
       "RELAX null":1.480435860231239,
       "RELAX partitioned descriptive":1.605231994725358,
       "k (general descriptive)":0.212665021622547
      },
     "Node22":{
       "General descriptive":0.02642940502740465,
       "MG94xREV with separate rates for branch sets":0.1834687286105477,
       "Nucleotide GTR":0.08816973491368758,
       "RELAX alternative":0.04795941190916309,
       "RELAX null":0.04799391505600544,
       "RELAX partitioned descriptive":0.04651284795393615,
       "k (general descriptive)":0.06847635234384994
      },
     "Node23":{
       "General descriptive":0,
       "MG94xREV with separate rates for branch sets":0,
       "Nucleotide GTR":0.04030307751449748,
       "RELAX alternative":0,
       "RELAX null":0,
       "RELAX partitioned descriptive":0,
       "k (general descriptive)":0.5821900813270489
      },
     "Node3":{
       "General descriptive":0,
       "MG94xREV with separate rates for branch sets":0,
       "Nucleotide GTR":0.0248127258902233,
       "RELAX alternative":0,
       "RELAX null":0,
       "RELAX partitioned descriptive":0,
       "k (general descriptive)":0.4860263607247221
      },
     "Node4":{
       "General descriptive":0.1503759092483454,
       "MG94xREV with separate rates for branch sets":0.2389398449914309,
       "Nucleotide GTR":0.1425394275584516,
       "RELAX alternative":0.1048784354896108,
       "RELAX null":0.1047088367567679,
       "RELAX partitioned descriptive":0.1065906816107924,
       "k (general descriptive)":0.6111029430805018
      },
     "Node5":{
       "General descriptive":0.008431224282620909,
       "MG94xREV with separate rates for branch sets":0.001355361036602891,
       "Nucleotide GTR":0.05129678566039256,
       "RELAX alternative":0.01040550190174858,
       "RELAX null":0.010469370752912,
       "RELAX partitioned descriptive":0.01012995688683655,
       "k (general descriptive)":0.06736404533344995
      },
     "Node7":{
       "General descriptive":0.2950002325718366,
       "MG94xREV with separate rates for branch sets":0.1910394757886554,
       "Nucleotide GTR":0.07370704218365333,
       "RELAX alternative":0.04098616965565745,
       "RELAX null":0.04110856316557414,
       "RELAX partitioned descriptive":0.03895672154064071,
       "k (general descriptive)":1.017952660991247
      },
     "Node8":{
       "General descriptive":0.04809002977708454,
       "MG94xREV with separate rates for branch sets":0.2744292144489268,
       "Nucleotide GTR":0.1883750909658735,
       "RELAX alternative":0.130703283664869,
       "RELAX null":0.1294282563243743,
       "RELAX partitioned descriptive":0.1342338825936157,
       "k (general descriptive)":0.2110241578440504
      },
     "Tbrevi_COATS_TRINITY_DN32343_c21_g2_i1":{
       "General descriptive":0.208506871281562,
       "MG94xREV with separate rates for branch sets":0.5915778906431172,
       "Nucleotide GTR":0.3011170682638439,
       "RELAX alternative":1.475082840697644,
       "RELAX null":1.537514847051068,
       "RELAX partitioned descriptive":1.528509303050641,
       "k (general descriptive)":0.1914847397690686,
       "original name":"Tbrevi_COATS_TRINITY_DN32343_c21_g2_i1"
      },
     "Tcaudicula_COATS_Gene_113910IDV1955_W1_S20016206":{
       "General descriptive":303.337898228235,
       "MG94xREV with separate rates for branch sets":0.730494557042925,
       "Nucleotide GTR":0.4225825012244905,
       "RELAX alternative":0.4835125761010989,
       "RELAX null":0.4870917538408332,
       "RELAX partitioned descriptive":0.4874241542428954,
       "k (general descriptive)":1.52241637635133,
       "original name":"Tcaudicula_COATS_Gene_113910IDV1955-W1_S20016206"
      },
     "Tchauliodus_COATS_Gene_163136IDV5657_W1_S110019205":{
       "General descriptive":0.05550291442195795,
       "MG94xREV with separate rates for branch sets":0.1693328383371126,
       "Nucleotide GTR":0.1236767492477218,
       "RELAX alternative":0.05289426316623701,
       "RELAX null":0.05288960644863832,
       "RELAX partitioned descriptive":0.05303747120632245,
       "k (general descriptive)":0.1248742490561027,
       "original name":"Tchauliodus_COATS_Gene_163136IDV5657-W1_S110019205"
      },
     "Tchauliodus_COATS_Gene_238101IDV5657_W1_S110027994":{
       "General descriptive":0,
       "MG94xREV with separate rates for branch sets":0,
       "Nucleotide GTR":0,
       "RELAX alternative":0,
       "RELAX null":0,
       "RELAX partitioned descriptive":0,
       "k (general descriptive)":0.5746818690120109,
       "original name":"Tchauliodus_COATS_Gene_238101IDV5657-W1_S110027994"
      },
     "Tiriomotensis_COATS_Gene_177217IDV2587_W1_S120022311":{
       "General descriptive":0.349285423038691,
       "MG94xREV with separate rates for branch sets":0.6359236289713076,
       "Nucleotide GTR":0.3557180665600302,
       "RELAX alternative":0.7888515049714823,
       "RELAX null":0.8180167528939757,
       "RELAX partitioned descriptive":0.7099719394599355,
       "k (general descriptive)":0.2571469449712727,
       "original name":"Tiriomotensis_COATS_Gene_177217IDV2587-W1_S120022311"
      },
     "Tmandibulata_COATS_Gene_272872IDV2675_W1_S270034876":{
       "General descriptive":0.09394023952010172,
       "MG94xREV with separate rates for branch sets":0.2051519091381101,
       "Nucleotide GTR":0.122818411589115,
       "RELAX alternative":0.08844113936204627,
       "RELAX null":0.08860529050300224,
       "RELAX partitioned descriptive":0.08920129657662952,
       "k (general descriptive)":0.4484816221259979,
       "original name":"Tmandibulata_COATS_Gene_272872IDV2675-W1_S270034876"
      },
     "Tpalu_COATS_TRINITY_DN25973_c2_g1_i1":{
       "General descriptive":0.003850990587549346,
       "MG94xREV with separate rates for branch sets":0.01164415045775728,
       "Nucleotide GTR":0.0113030280048896,
       "RELAX alternative":0.003871969684475755,
       "RELAX null":0.00386999255761956,
       "RELAX partitioned descriptive":0.00387729344164077,
       "k (general descriptive)":0,
       "original name":"Tpalu_COATS_TRINITY_DN25973_c2_g1_i1"
      },
     "Tpinicola_COATS_Gene_305077IDV4228_W1_S80040113":{
       "General descriptive":0.001911560074979736,
       "MG94xREV with separate rates for branch sets":0.005927720370440456,
       "Nucleotide GTR":0.005586295822449512,
       "RELAX alternative":0.001964087785347124,
       "RELAX null":0.001964259321616041,
       "RELAX partitioned descriptive":0.001957853490798523,
       "k (general descriptive)":0,
       "original name":"Tpinicola_COATS_Gene_305077IDV4228-W1_S80040113"
      },
     "Tpraedonia_COATS_Gene_349875IDV2674_W1_S160045423":{
       "General descriptive":1.002361499181269,
       "MG94xREV with separate rates for branch sets":0.7372760478768452,
       "Nucleotide GTR":0.3591626083282519,
       "RELAX alternative":0.2900023710430681,
       "RELAX null":0.2921896281379056,
       "RELAX partitioned descriptive":0.2825993529639056,
       "k (general descriptive)":49.99999999999989,
       "original name":"Tpraedonia_COATS_Gene_349875IDV2674-W1_S160045423"
      },
     "Tstela_COATS_TRINITY_DN24235_c6_g1_i1":{
       "General descriptive":0.006681398925310777,
       "MG94xREV with separate rates for branch sets":0.0194748086288348,
       "Nucleotide GTR":0.0193028958791621,
       "RELAX alternative":0.006617606675621925,
       "RELAX null":0.006619569224587825,
       "RELAX partitioned descriptive":0.006643132338895522,
       "k (general descriptive)":0.03544395142466525,
       "original name":"Tstela_COATS_TRINITY_DN24235_c6_g1_i1"
      },
     "Tstela_COATS_TRINITY_DN5794_c0_g1_i1":{
       "General descriptive":0.02466005251922631,
       "MG94xREV with separate rates for branch sets":0.06199389283494609,
       "Nucleotide GTR":0.04952679321225057,
       "RELAX alternative":0.01951832648586524,
       "RELAX null":0.01954707932713968,
       "RELAX partitioned descriptive":0.01945613552543108,
       "k (general descriptive)":0.2351982636108277,
       "original name":"Tstela_COATS_TRINITY_DN5794_c0_g1_i1"
      },
     "Twaika_COATS_TRINITY_DN29812_c1_g1_i1":{
       "General descriptive":0.02596854742237582,
       "MG94xREV with separate rates for branch sets":0.1025885633480755,
       "Nucleotide GTR":0.0922356379619237,
       "RELAX alternative":0.02969419009250235,
       "RELAX null":0.02962540863208675,
       "RELAX partitioned descriptive":0.0297929414378215,
       "k (general descriptive)":0.04819694632552343,
       "original name":"Twaika_COATS_TRINITY_DN29812_c1_g1_i1"
      },
     "Twaika_COATS_TRINITY_DN29815_c1_g1_i1":{
       "General descriptive":0.01849948354803171,
       "MG94xREV with separate rates for branch sets":0.05278320835094138,
       "Nucleotide GTR":0.05196387137783009,
       "RELAX alternative":0.01881107740543314,
       "RELAX null":0.01882702889079115,
       "RELAX partitioned descriptive":0.01883711112983696,
       "k (general descriptive)":0.282182412290037,
       "original name":"Twaika_COATS_TRINITY_DN29815_c1_g1_i1"
      }
    },
   "attributes":{
     "General descriptive":{
       "attribute type":"branch length",
       "display order":4
      },
     "MG94xREV with separate rates for branch sets":{
       "attribute type":"branch length",
       "display order":1
      },
     "Nucleotide GTR":{
       "attribute type":"branch length",
       "display order":0
      },
     "RELAX alternative":{
       "attribute type":"branch length",
       "display order":2
      },
     "RELAX null":{
       "attribute type":"branch length",
       "display order":3
      },
     "RELAX partitioned descriptive":{
       "attribute type":"branch length",
       "display order":5
      },
     "k (general descriptive)":{
       "attribute type":"branch label",
       "display order":4
      },
     "original name":{
       "attribute type":"node label",
       "display order":-1
      }
    }
  },
 "data partitions":{
   "0":{
     "coverage":      [
[0, 1, 2, 3, 4, 5, 6, 7, 8, 9, 10, 11, 12, 13, 14, 15, 16, 17, 18, 19, 20, 21, 22, 23, 24, 25, 26, 27, 28, 29, 30, 31, 32, 33, 34, 35, 36, 37, 38, 39, 40, 41, 42, 43, 44, 45, 46, 47, 48, 49, 50, 51, 52, 53, 54, 55, 56, 57, 58, 59] 
      ],
     "name":"relax.filter.default"
    }
  },
 "fits":{
   "General descriptive":{
     "AIC-c":3966.288005314712,
     "Log Likelihood":-1904.046937194602,
     "Rate Distributions":{
       "Shared":{
         "0":{
           "omega":4.088979983294184e-08,
           "proportion":0.7051667886141886
          },
         "1":{
           "omega":0.01519473667724665,
           "proportion":0.1943534918670718
          },
         "2":{
           "omega":1.074962902640163,
           "proportion":0.1004797195187397
          }
        }
      },
     "display order":4,
     "estimated parameters":73
    },
   "MG94xREV with separate rates for branch sets":{
     "AIC-c":4021.622376114479,
     "Equilibrium frequencies":      [
[0.011219339377085],
      [0.01072647913743163],
      [0.005131408567717267],
      [0.01716563856412659],
      [0.01261167469678439],
      [0.0120576498291364],
      [0.005768223370131879],
      [0.01929591772359679],
      [0.007971145487107622],
      [0.007620976859254916],
      [0.003645776535702973],
      [0.01219588763427792],
      [0.01509341373759673],
      [0.01443036725492298],
      [0.006903300628145231],
      [0.02309298936509439],
      [0.01195901535786788],
      [0.01143366150438382],
      [0.005469715444579933],
      [0.01829734606614029],
      [0.01344314547568888],
      [0.01285259449241303],
      [0.006148514591858481],
      [0.02056807167024169],
      [0.008496672406115152],
      [0.008123417630803948],
      [0.003886137687471782],
      [0.01299994613043388],
      [0.0160885022391997],
      [0.01538174199220414],
      [0.007358425969410117],
      [0.0246154791466873],
      [0.02347662906263165],
      [0.02244531192022536],
      [0.0107375462550994],
      [0.03591934566274882],
      [0.02639011075105849],
      [0.02523080574457915],
      [0.01207009039120211],
      [0.04037698545292072],
      [0.01667973661509092],
      [0.01594700372332554],
      [0.007628839853865178],
      [0.02552007034070754],
      [0.03158318539950009],
      [0.03019575109505189],
      [0.01444525588430017],
      [0.04832241249239031],
      [0.01542625410387415],
      [0.0246867121030809],
      [0.01813744249677249],
      [0.01734067327933387],
      [0.008295553302764892],
      [0.02775036674736181],
      [0.01096008522874549],
      [0.005243162693472821],
      [0.01753947956810324],
      [0.02170654812524275],
      [0.02075298979605046],
      [0.00992796128914124],
      [0.03321111404774595] 
      ],
     "Log Likelihood":-1965.745685873834,
     "Rate Distributions":{
       "non-synonymous/synonymous rate ratio for *Reference*":        [
[0.106939012565166, 1] 
        ],
       "non-synonymous/synonymous rate ratio for *Test*":        [
[0.184949255152497, 1] 
        ]
      },
     "display order":1,
     "estimated parameters":43
    },
   "Nucleotide GTR":{
     "AIC-c":4348.616105396251,
     "Equilibrium frequencies":      [
[0.2145690587811035],
      [0.2419761990623873],
      [0.2214208438514244],
      [0.3220338983050848] 
      ],
     "Log Likelihood":-2136.813330671384,
     "Rate Distributions":{
       "Substitution rate from nucleotide A to nucleotide C":0.6734540621089359,
       "Substitution rate from nucleotide A to nucleotide G":1,
       "Substitution rate from nucleotide A to nucleotide T":0.5320651611562448,
       "Substitution rate from nucleotide C to nucleotide G":0.3506337776744729,
       "Substitution rate from nucleotide C to nucleotide T":0.8511754011932294,
       "Substitution rate from nucleotide G to nucleotide T":0.4748683751827771
      },
     "display order":0,
     "estimated parameters":37
    },
   "RELAX alternative":{
     "AIC-c":3949.26782759095,
     "Log Likelihood":-1925.160229584949,
     "Rate Distributions":{
       "Reference":{
         "0":{
           "omega":0,
           "proportion":0.3691711286781393
          },
         "1":{
           "omega":0.01880016793709258,
           "proportion":0.4482651693098303
          },
         "2":{
           "omega":1,
           "proportion":0.1825637020120304
          }
        },
       "Test":{
         "0":{
           "omega":0,
           "proportion":0.3691711286781393
          },
         "1":{
           "omega":0.01714432677025378,
           "proportion":0.4482651693098303
          },
         "2":{
           "omega":1,
           "proportion":0.1825637020120304
          }
        }
      },
     "display order":2,
     "estimated parameters":47
    },
   "RELAX null":{
     "AIC-c":3947.071942139255,
     "Log Likelihood":-1925.167953544983,
     "Rate Distributions":{
       "Reference":{
         "0":{
           "omega":0,
           "proportion":0.3738421200073065
          },
         "1":{
           "omega":0.01836465418494308,
           "proportion":0.4432091045085987
          },
         "2":{
           "omega":1,
           "proportion":0.1829487754840947
          }
        },
       "Test":{
         "0":{
           "omega":0,
           "proportion":0.3738421200073065
          },
         "1":{
           "omega":0.01836465418494308,
           "proportion":0.4432091045085987
          },
         "2":{
           "omega":1,
           "proportion":0.1829487754840947
          }
        }
      },
     "display order":3,
     "estimated parameters":46
    },
   "RELAX partitioned descriptive":{
     "AIC-c":3954.703193805736,
     "Log Likelihood":-1923.430892057053,
     "Rate Distributions":{
       "Reference":{
         "0":{
           "omega":0,
           "proportion":0.5028362979445136
          },
         "1":{
           "omega":0.02845986776659374,
           "proportion":0.3095309959823687
          },
         "2":{
           "omega":1,
           "proportion":0.1876327060731177
          }
        },
       "Test":{
         "0":{
           "omega":0,
           "proportion":0.5442421480970624
          },
         "1":{
           "omega":0.03432619635122421,
           "proportion":0.4557578519029369
          },
         "2":{
           "omega":1718.313116033448,
           "proportion":7.083900051708809e-16
          }
        }
      },
     "display order":5,
     "estimated parameters":51
    }
  },
 "input":{
   "file name":"/vortexfs1/home/cberger/RGCB/michael_results/hyphy/family_5412.codon.phylip_renamed.phylip_CLEANED",
   "number of sequences":16,
   "number of sites":60,
   "partition count":1,
   "trees":{
     "0":"(Tstela_COATS_TRINITY_DN24235_c6_g1_i1,Tpalu_COATS_TRINITY_DN25973_c2_g1_i1,(((Tiriomotensis_COATS_Gene_177217IDV2587_W1_S120022311,((Tpinicola_COATS_Gene_305077IDV4228_W1_S80040113,Tchauliodus_COATS_Gene_238101IDV5657_W1_S110027994)Node8,(((Tcaudicula_COATS_Gene_113910IDV1955_W1_S20016206,Australomimetus_COATS_TRINITY_DN242769_c0_g1_i1)Node13,(Malkaridaesp17_COATS_TRINITY_DN41890_c0_g1_i6,Tbrevi_COATS_TRINITY_DN32343_c21_g2_i1)Node16)Node12,Araneusmarmoreus_COATS_TRINITY_DN26560_c0_g1_i1)Node11)Node7,Tpraedonia_COATS_Gene_349875IDV2674_W1_S160045423)Node5,((Tstela_COATS_TRINITY_DN5794_c0_g1_i1,Twaika_COATS_TRINITY_DN29812_c1_g1_i1)Node23,Tmandibulata_COATS_Gene_272872IDV2675_W1_S270034876)Node22)Node4,Tchauliodus_COATS_Gene_163136IDV5657_W1_S110019205)Node3,Twaika_COATS_TRINITY_DN29815_c1_g1_i1)"
    }
  },
 "test results":{
   "LRT":0.0154479200696187,
   "p-value":0.9010859324027908,
   "relaxation or intensification parameter":1.023201069091485
  },
 "tested":{
   "0":{
     "Araneusmarmoreus_COATS_TRINITY_DN26560_c0_g1_i1":"Reference",
     "Australomimetus_COATS_TRINITY_DN242769_c0_g1_i1":"Test",
     "Malkaridaesp17_COATS_TRINITY_DN41890_c0_g1_i6":"Test",
     "Node11":"Reference",
     "Node12":"Reference",
     "Node13":"Reference",
     "Node16":"Reference",
     "Node22":"Reference",
     "Node23":"Reference",
     "Node3":"Reference",
     "Node4":"Reference",
     "Node5":"Reference",
     "Node7":"Reference",
     "Node8":"Reference",
     "Tbrevi_COATS_TRINITY_DN32343_c21_g2_i1":"Reference",
     "Tcaudicula_COATS_Gene_113910IDV1955_W1_S20016206":"Reference",
     "Tchauliodus_COATS_Gene_163136IDV5657_W1_S110019205":"Reference",
     "Tchauliodus_COATS_Gene_238101IDV5657_W1_S110027994":"Reference",
     "Tiriomotensis_COATS_Gene_177217IDV2587_W1_S120022311":"Reference",
     "Tmandibulata_COATS_Gene_272872IDV2675_W1_S270034876":"Reference",
     "Tpalu_COATS_TRINITY_DN25973_c2_g1_i1":"Reference",
     "Tpinicola_COATS_Gene_305077IDV4228_W1_S80040113":"Reference",
     "Tpraedonia_COATS_Gene_349875IDV2674_W1_S160045423":"Reference",
     "Tstela_COATS_TRINITY_DN24235_c6_g1_i1":"Reference",
     "Tstela_COATS_TRINITY_DN5794_c0_g1_i1":"Reference",
     "Twaika_COATS_TRINITY_DN29812_c1_g1_i1":"Reference",
     "Twaika_COATS_TRINITY_DN29815_c1_g1_i1":"Reference"
    }
  },
 "timers":{
   "General descriptive model fitting":{
     "order":2,
     "timer":260
    },
   "Overall":{
     "order":0,
     "timer":573
    },
   "Preliminary model fitting":{
     "order":1,
     "timer":8
    },
   "RELAX alternative model fitting":{
     "order":3,
     "timer":164
    },
   "RELAX null model fitting":{
     "order":4,
     "timer":3
    },
   "RELAX partitioned descriptive":{
     "order":5,
     "timer":138
    }
  }
}